%!PS-Adobe-3.0 EPSF-3.0
%%Title: ./results/reward_functions.eps
%%Creator: matplotlib version 1.5.1, http://matplotlib.org/
%%CreationDate: Sat Oct  7 16:48:35 2017
%%Orientation: portrait
%%BoundingBox: 19 185 592 606
%%EndComments
%%BeginProlog
/mpldict 11 dict def
mpldict begin
/m { moveto } bind def
/l { lineto } bind def
/r { rlineto } bind def
/c { curveto } bind def
/cl { closepath } bind def
/box {
m
1 index 0 r
0 exch r
neg 0 r
cl
} bind def
/clipbox {
box
clip
newpath
} bind def
%!PS-Adobe-3.0 Resource-Font
%%Title: STIXGeneral-Regular
%%Copyright: Copyright (c) 2001-2010 by the STI Pub Companies, consisting of the American Chemical Society, the American Institute of Physics, the American Mathematical Society, the American Physical Society, Elsevier, Inc., and The Institute of Electrical and Electronic Engineers, Inc. Portions copyright (c) 1998-2003 by MicroPress, Inc. Portions copyright (c) 1990 by Elsevier, Inc. All rights reserved.
%%Creator: Converted from TrueType to type 3 by PPR
25 dict begin
/_d{bind def}bind def
/_m{moveto}_d
/_l{lineto}_d
/_cl{closepath eofill}_d
/_c{curveto}_d
/_sc{7 -1 roll{setcachedevice}{pop pop pop pop pop pop}ifelse}_d
/_e{exec}_d
/FontName /STIXGeneral-Regular def
/PaintType 0 def
/FontMatrix[.001 0 0 .001 0 0]def
/FontBBox[-970 -443 2000 1023]def
/FontType 3 def
/Encoding [ /uni21A6 ] def
/FontInfo 10 dict dup begin
/FamilyName (STIXGeneral) def
/FullName (STIXGeneral-Regular) def
/Notice (Copyright (c) 2001-2010 by the STI Pub Companies, consisting of the American Chemical Society, the American Institute of Physics, the American Mathematical Society, the American Physical Society, Elsevier, Inc., and The Institute of Electrical and Electronic Engineers, Inc. Portions copyright (c) 1998-2003 by MicroPress, Inc. Portions copyright (c) 1990 by Elsevier, Inc. All rights reserved. STIX Fonts(TM) is a trademark of The Institute of Electrical and Electronics Engineers, Inc.) def
/Weight (Regular) def
/Version (Version 1.0.0) def
/ItalicAngle 0.0 def
/isFixedPitch false def
/UnderlinePosition -75 def
/UnderlineThickness 50 def
end readonly def
/CharStrings 1 dict dup begin
/uni21A6{{926 0 70 57 857 450 _sc
857 258 _m
857 248 _l
780 215 701 151 619 57 _c
599 76 _l
617 102 645 134 681 172 _c
690 181 695 190 695 200 _c
695 213 686 220 669 220 _c
120 220 _l
120 57 _l
70 57 _l
70 450 _l
120 450 _l
120 286 _l
670 286 _l
678 286 684 288 689 293 _c
693 297 696 302 696 308 _c
696 315 691 323 682 333 _c
650 363 623 395 600 431 _c
620 450 _l
}_e{704 352 783 288 857 258 _c
_cl}_e}_d
end readonly def

/BuildGlyph
 {exch begin
 CharStrings exch
 2 copy known not{pop /.notdef}if
 true 3 1 roll get exec
 end}_d

/BuildChar {
 1 index /Encoding get exch get
 1 index /BuildGlyph get exec
}_d

FontName currentdict end definefont pop
%!PS-Adobe-3.0 Resource-Font
%%Title: cmr10
%%Copyright: Copyright (C) 1994, Basil K. Malyshev. All Rights Reserved.012BaKoMa Fonts Collection, Level-B.
%%Creator: Converted from TrueType to type 3 by PPR
25 dict begin
/_d{bind def}bind def
/_m{moveto}_d
/_l{lineto}_d
/_cl{closepath eofill}_d
/_c{curveto}_d
/_sc{7 -1 roll{setcachedevice}{pop pop pop pop pop pop}ifelse}_d
/_e{exec}_d
/FontName /Cmr10 def
/PaintType 0 def
/FontMatrix[.001 0 0 .001 0 0]def
/FontBBox[-44 -250 1009 750]def
/FontType 3 def
/Encoding [ /two /parenright /one /parenleft ] def
/FontInfo 10 dict dup begin
/FamilyName (cmr10) def
/FullName (cmr10) def
/Notice (Copyright (C) 1994, Basil K. Malyshev. All Rights Reserved.012BaKoMa Fonts Collection, Level-B. ) def
/Weight (Regular) def
/Version (1.1/12-Nov-94) def
/ItalicAngle 0.0 def
/isFixedPitch false def
/UnderlinePosition -133 def
/UnderlineThickness 20 def
end readonly def
/CharStrings 4 dict dup begin
/two{{500 0 50 0 449 666 _sc
50 0 _m
50 27 _l
50 28 50 30 52 32 _c
207 204 _l
230 229 249 250 264 268 _c
278 285 293 305 307 327 _c
321 349 333 372 341 396 _c
349 419 354 444 354 470 _c
354 497 349 523 339 548 _c
329 573 314 593 294 608 _c
274 623 249 631 221 631 _c
192 631 166 622 143 605 _c
119 587 103 565 94 537 _c
96 537 100 538 105 538 _c
}_e{119 538 132 533 143 523 _c
153 513 159 500 159 484 _c
159 468 153 455 143 445 _c
132 434 119 429 105 429 _c
89 429 76 434 66 445 _c
55 456 50 469 50 484 _c
50 508 54 532 64 554 _c
73 576 86 595 104 613 _c
122 630 142 643 164 652 _c
186 661 210 666 236 666 _c
274 666 309 658 342 642 _c
375 626 401 603 420 573 _c
439 543 449 509 449 470 _c
}_e{449 441 442 414 430 388 _c
417 362 401 338 381 317 _c
361 295 336 271 305 244 _c
274 217 254 199 244 190 _c
131 81 _l
227 81 _l
274 81 313 81 345 82 _c
377 82 394 84 396 86 _c
404 94 412 125 420 178 _c
449 178 _l
421 0 _l
50 0 _l
_cl}_e}_d
/parenright{{388 0 56 -249 291 750 _sc
65 -249 _m
59 -249 56 -246 56 -240 _c
56 -237 56 -235 58 -234 _c
172 -122 229 38 229 250 _c
229 462 172 623 60 733 _c
57 734 56 737 56 741 _c
56 743 57 745 59 747 _c
61 749 63 750 65 750 _c
74 750 _l
76 750 77 749 79 748 _c
127 710 167 664 199 610 _c
231 556 254 498 269 437 _c
283 376 291 314 291 250 _c
291 202 287 156 279 110 _c
}_e{271 64 258 20 241 -24 _c
223 -68 201 -108 175 -146 _c
148 -184 116 -217 79 -247 _c
77 -248 76 -249 74 -249 _c
65 -249 _l
_cl}_e}_d
/one{500 0 87 0 421 666 _sc
93 0 _m
93 35 _l
176 35 218 45 218 67 _c
218 592 _l
183 575 139 567 87 567 _c
87 602 _l
168 602 230 623 272 666 _c
286 666 _l
288 666 291 665 293 663 _c
295 661 296 659 296 657 _c
296 67 _l
296 45 337 35 421 35 _c
421 0 _l
93 0 _l
_cl}_d
/parenleft{{388 0 97 -249 332 750 _sc
310 -247 _m
272 -217 240 -184 214 -146 _c
187 -108 165 -67 148 -25 _c
131 17 118 62 110 109 _c
101 155 97 202 97 250 _c
97 298 101 345 110 392 _c
118 438 131 483 149 527 _c
166 570 188 611 215 649 _c
242 687 274 720 310 748 _c
310 749 311 750 315 750 _c
324 750 _l
326 750 327 749 329 747 _c
331 745 332 743 332 741 _c
332 738 331 736 330 735 _c
}_e{297 703 270 668 248 632 _c
226 596 209 557 196 516 _c
183 474 174 432 168 388 _c
162 344 159 298 159 250 _c
159 38 215 -122 329 -232 _c
331 -234 332 -236 332 -240 _c
332 -242 331 -244 329 -246 _c
327 -248 326 -249 324 -249 _c
315 -249 _l
311 -249 310 -248 310 -247 _c
_cl}_e}_d
end readonly def

/BuildGlyph
 {exch begin
 CharStrings exch
 2 copy known not{pop /.notdef}if
 true 3 1 roll get exec
 end}_d

/BuildChar {
 1 index /Encoding get exch get
 1 index /BuildGlyph get exec
}_d

FontName currentdict end definefont pop
%!PS-Adobe-3.0 Resource-Font
%%Title: Bitstream Vera Sans
%%Copyright: Copyright (c) 2003 by Bitstream, Inc. All Rights Reserved.
%%Creator: Converted from TrueType to type 3 by PPR
25 dict begin
/_d{bind def}bind def
/_m{moveto}_d
/_l{lineto}_d
/_cl{closepath eofill}_d
/_c{curveto}_d
/_sc{7 -1 roll{setcachedevice}{pop pop pop pop pop pop}ifelse}_d
/_e{exec}_d
/FontName /BitstreamVeraSans-Roman def
/PaintType 0 def
/FontMatrix[.001 0 0 .001 0 0]def
/FontBBox[-183 -236 1287 928]def
/FontType 3 def
/Encoding [ /period /zero /one /two /four /five /six /eight /minus ] def
/FontInfo 10 dict dup begin
/FamilyName (Bitstream Vera Sans) def
/FullName (Bitstream Vera Sans) def
/Notice (Copyright (c) 2003 by Bitstream, Inc. All Rights Reserved. Bitstream Vera is a trademark of Bitstream, Inc.) def
/Weight (Roman) def
/Version (Release 1.10) def
/ItalicAngle 0.0 def
/isFixedPitch false def
/UnderlinePosition -213 def
/UnderlineThickness 143 def
end readonly def
/CharStrings 9 dict dup begin
/period{318 0 107 0 210 124 _sc
107 124 _m
210 124 _l
210 0 _l
107 0 _l
107 124 _l
_cl}_d
/zero{636 0 66 -13 570 742 _sc
318 664 _m
267 664 229 639 203 589 _c
177 539 165 464 165 364 _c
165 264 177 189 203 139 _c
229 89 267 64 318 64 _c
369 64 407 89 433 139 _c
458 189 471 264 471 364 _c
471 464 458 539 433 589 _c
407 639 369 664 318 664 _c
318 742 _m
399 742 461 709 505 645 _c
548 580 570 486 570 364 _c
570 241 548 147 505 83 _c
461 19 399 -13 318 -13 _c
236 -13 173 19 130 83 _c
87 147 66 241 66 364 _c
66 486 87 580 130 645 _c
173 709 236 742 318 742 _c
_cl}_d
/one{636 0 110 0 544 729 _sc
124 83 _m
285 83 _l
285 639 _l
110 604 _l
110 694 _l
284 729 _l
383 729 _l
383 83 _l
544 83 _l
544 0 _l
124 0 _l
124 83 _l
_cl}_d
/two{{636 0 73 0 536 742 _sc
192 83 _m
536 83 _l
536 0 _l
73 0 _l
73 83 _l
110 121 161 173 226 239 _c
290 304 331 346 348 365 _c
380 400 402 430 414 455 _c
426 479 433 504 433 528 _c
433 566 419 598 392 622 _c
365 646 330 659 286 659 _c
255 659 222 653 188 643 _c
154 632 117 616 78 594 _c
78 694 _l
118 710 155 722 189 730 _c
223 738 255 742 284 742 _c
}_e{359 742 419 723 464 685 _c
509 647 532 597 532 534 _c
532 504 526 475 515 449 _c
504 422 484 390 454 354 _c
446 344 420 317 376 272 _c
332 227 271 164 192 83 _c
_cl}_e}_d
/four{636 0 49 0 580 729 _sc
378 643 _m
129 254 _l
378 254 _l
378 643 _l
352 729 _m
476 729 _l
476 254 _l
580 254 _l
580 172 _l
476 172 _l
476 0 _l
378 0 _l
378 172 _l
49 172 _l
49 267 _l
352 729 _l
_cl}_d
/five{{636 0 77 -13 549 729 _sc
108 729 _m
495 729 _l
495 646 _l
198 646 _l
198 467 _l
212 472 227 476 241 478 _c
255 480 270 482 284 482 _c
365 482 429 459 477 415 _c
525 370 549 310 549 234 _c
549 155 524 94 475 51 _c
426 8 357 -13 269 -13 _c
238 -13 207 -10 175 -6 _c
143 -1 111 6 77 17 _c
77 116 _l
106 100 136 88 168 80 _c
199 72 232 69 267 69 _c
}_e{323 69 368 83 401 113 _c
433 143 450 183 450 234 _c
450 284 433 324 401 354 _c
368 384 323 399 267 399 _c
241 399 214 396 188 390 _c
162 384 135 375 108 363 _c
108 729 _l
_cl}_e}_d
/six{{636 0 70 -13 573 742 _sc
330 404 _m
286 404 251 388 225 358 _c
199 328 186 286 186 234 _c
186 181 199 139 225 109 _c
251 79 286 64 330 64 _c
374 64 409 79 435 109 _c
461 139 474 181 474 234 _c
474 286 461 328 435 358 _c
409 388 374 404 330 404 _c
526 713 _m
526 623 _l
501 635 476 644 451 650 _c
425 656 400 659 376 659 _c
310 659 260 637 226 593 _c
}_e{192 549 172 482 168 394 _c
187 422 211 444 240 459 _c
269 474 301 482 336 482 _c
409 482 467 459 509 415 _c
551 371 573 310 573 234 _c
573 159 550 99 506 54 _c
462 9 403 -13 330 -13 _c
246 -13 181 19 137 83 _c
92 147 70 241 70 364 _c
70 479 97 571 152 639 _c
206 707 280 742 372 742 _c
396 742 421 739 447 735 _c
472 730 498 723 526 713 _c
_cl}_e}_d
/eight{{636 0 68 -13 568 742 _sc
318 346 _m
271 346 234 333 207 308 _c
180 283 167 249 167 205 _c
167 161 180 126 207 101 _c
234 76 271 64 318 64 _c
364 64 401 76 428 102 _c
455 127 469 161 469 205 _c
469 249 455 283 429 308 _c
402 333 365 346 318 346 _c
219 388 _m
177 398 144 418 120 447 _c
96 476 85 511 85 553 _c
85 611 105 657 147 691 _c
188 725 245 742 318 742 _c
}_e{390 742 447 725 489 691 _c
530 657 551 611 551 553 _c
551 511 539 476 515 447 _c
491 418 459 398 417 388 _c
464 377 501 355 528 323 _c
554 291 568 251 568 205 _c
568 134 546 80 503 43 _c
459 5 398 -13 318 -13 _c
237 -13 175 5 132 43 _c
89 80 68 134 68 205 _c
68 251 81 291 108 323 _c
134 355 171 377 219 388 _c
183 544 _m
183 506 194 476 218 455 _c
}_e{242 434 275 424 318 424 _c
360 424 393 434 417 455 _c
441 476 453 506 453 544 _c
453 582 441 611 417 632 _c
393 653 360 664 318 664 _c
275 664 242 653 218 632 _c
194 611 183 582 183 544 _c
_cl}_e}_d
/minus{838 0 106 272 732 355 _sc
106 355 _m
732 355 _l
732 272 _l
106 272 _l
106 355 _l
_cl}_d
end readonly def

/BuildGlyph
 {exch begin
 CharStrings exch
 2 copy known not{pop /.notdef}if
 true 3 1 roll get exec
 end}_d

/BuildChar {
 1 index /Encoding get exch get
 1 index /BuildGlyph get exec
}_d

FontName currentdict end definefont pop
%!PS-Adobe-3.0 Resource-Font
%%Title: cmmi10
%%Copyright: Copyright (C) 1994, Basil K. Malyshev. All Rights Reserved.012BaKoMa Fonts Collection, Level-B.
%%Creator: Converted from TrueType to type 3 by PPR
25 dict begin
/_d{bind def}bind def
/_m{moveto}_d
/_l{lineto}_d
/_cl{closepath eofill}_d
/_c{curveto}_d
/_sc{7 -1 roll{setcachedevice}{pop pop pop pop pop pop}ifelse}_d
/_e{exec}_d
/FontName /Cmmi10 def
/PaintType 0 def
/FontMatrix[.001 0 0 .001 0 0]def
/FontBBox[-34 -250 1048 750]def
/FontType 3 def
/Encoding [ /g /x /b /f /a ] def
/FontInfo 10 dict dup begin
/FamilyName (cmmi10) def
/FullName (cmmi10) def
/Notice (Copyright (C) 1994, Basil K. Malyshev. All Rights Reserved.012BaKoMa Fonts Collection, Level-B. ) def
/Weight (Regular) def
/Version (1.1/12-Nov-94) def
/ItalicAngle 0.0 def
/isFixedPitch false def
/UnderlinePosition -133 def
/UnderlineThickness 20 def
end readonly def
/CharStrings 5 dict dup begin
/g{{477 0 14 -204 476 442 _sc
14 -142 _m
14 -126 19 -111 31 -99 _c
42 -87 56 -81 72 -81 _c
82 -81 91 -84 99 -91 _c
106 -97 110 -106 110 -117 _c
110 -129 106 -139 99 -149 _c
92 -159 83 -166 73 -170 _c
91 -175 119 -178 157 -178 _c
187 -178 215 -166 241 -142 _c
266 -118 283 -91 291 -61 _c
320 55 _l
284 18 246 0 207 0 _c
178 0 153 7 133 22 _c
113 36 97 56 87 80 _c
}_e{76 104 71 130 71 158 _c
71 188 77 220 89 254 _c
101 288 119 319 142 348 _c
164 376 190 399 220 416 _c
249 433 280 442 313 442 _c
332 442 349 436 365 426 _c
381 415 393 401 403 383 _c
409 409 424 422 446 422 _c
454 422 461 419 467 414 _c
473 409 476 402 476 394 _c
476 392 476 390 476 389 _c
476 388 475 387 475 386 _c
361 -67 _l
355 -87 346 -106 332 -124 _c
}_e{318 -141 301 -155 282 -167 _c
263 -179 242 -188 220 -194 _c
198 -200 176 -204 156 -204 _c
118 -204 84 -200 56 -193 _c
28 -185 14 -168 14 -142 _c
209 26 _m
251 26 293 55 335 114 _c
390 332 _l
385 355 376 375 362 391 _c
348 407 331 416 311 416 _c
289 416 268 407 248 389 _c
228 371 212 349 199 324 _c
187 300 175 265 163 220 _c
151 175 146 140 146 114 _c
146 91 151 71 161 53 _c
}_e{171 35 187 26 209 26 _c
_cl}_e}_d
/x{{571 0 31 -10 526 442 _sc
78 29 _m
90 19 106 15 128 15 _c
148 15 167 25 183 45 _c
199 65 210 87 216 111 _c
261 288 _l
268 320 272 342 272 354 _c
272 370 267 385 258 397 _c
248 409 235 416 219 416 _c
198 416 178 409 160 396 _c
141 382 125 365 113 345 _c
100 325 91 304 86 284 _c
84 280 82 278 78 278 _c
66 278 _l
60 278 58 281 58 287 _c
58 290 _l
}_e{64 314 75 338 91 362 _c
107 386 126 405 149 420 _c
171 434 195 442 221 442 _c
245 442 267 435 287 422 _c
307 409 321 391 329 369 _c
340 389 354 407 372 421 _c
390 435 409 442 431 442 _c
445 442 460 439 475 434 _c
490 429 502 421 512 411 _c
521 401 526 388 526 372 _c
526 355 520 340 509 328 _c
498 316 484 310 468 310 _c
457 310 448 313 441 320 _c
}_e{433 327 430 336 430 346 _c
430 360 434 372 444 383 _c
454 393 465 400 479 402 _c
467 411 450 416 429 416 _c
407 416 389 406 373 386 _c
357 366 346 344 340 320 _c
296 143 _l
288 116 285 94 285 77 _c
285 60 289 45 299 33 _c
309 21 322 15 338 15 _c
369 15 397 28 421 56 _c
445 84 462 114 470 147 _c
471 151 474 153 478 153 _c
490 153 _l
492 153 494 152 496 150 _c
}_e{498 148 499 146 499 144 _c
499 143 498 142 498 141 _c
488 101 468 66 438 36 _c
408 5 374 -10 336 -10 _c
311 -10 289 -3 269 9 _c
249 21 236 39 228 62 _c
217 42 202 25 184 11 _c
166 -3 146 -10 126 -10 _c
111 -10 96 -7 81 -3 _c
66 1 54 9 45 19 _c
35 29 31 43 31 59 _c
31 75 36 89 47 102 _c
57 114 71 121 88 121 _c
}_e{98 121 107 117 115 111 _c
123 104 127 95 127 85 _c
127 71 122 58 113 48 _c
103 38 92 31 78 29 _c
_cl}_e}_d
/b{{429 0 45 -10 416 694 _sc
173 -10 _m
132 -10 100 5 78 36 _c
56 67 45 104 45 147 _c
45 153 46 165 49 183 _c
52 201 54 212 54 217 _c
151 605 _l
153 616 155 625 156 632 _c
156 642 134 648 91 648 _c
84 648 81 652 81 661 _c
81 663 82 666 83 670 _c
84 674 85 677 87 679 _c
89 681 91 683 95 683 _c
230 694 _l
238 694 242 689 242 681 _c
168 386 _l
}_e{206 423 244 442 282 442 _c
310 442 335 434 355 419 _c
375 404 391 384 401 360 _c
411 336 416 310 416 282 _c
416 250 409 216 397 182 _c
384 148 367 116 345 86 _c
323 56 297 33 267 16 _c
237 -1 206 -10 173 -10 _c
175 15 _m
197 15 219 24 239 43 _c
259 62 275 84 287 108 _c
300 134 312 170 324 216 _c
336 262 342 298 342 326 _c
342 350 337 371 327 389 _c
}_e{317 407 301 416 280 416 _c
256 416 233 407 211 389 _c
189 371 169 350 153 326 _c
125 213 _l
114 171 108 137 108 112 _c
108 86 113 64 124 44 _c
135 24 152 15 175 15 _c
_cl}_e}_d
/f{{489 0 53 -204 552 705 _sc
97 -164 _m
109 -173 124 -178 142 -178 _c
166 -178 185 -151 200 -99 _c
206 -73 223 9 251 151 _c
297 396 _l
211 396 _l
204 396 201 400 201 409 _c
203 423 208 431 214 431 _c
303 431 _l
315 496 _l
319 516 322 533 326 548 _c
329 562 332 576 336 588 _c
340 600 345 614 353 630 _c
364 652 379 670 399 684 _c
418 698 439 705 462 705 _c
476 705 490 702 504 697 _c
}_e{518 691 529 683 538 673 _c
547 662 552 649 552 635 _c
552 617 546 602 535 590 _c
523 578 510 572 494 572 _c
483 572 474 575 466 582 _c
458 588 455 597 455 608 _c
455 622 460 635 470 646 _c
480 657 492 663 507 665 _c
494 674 479 679 461 679 _c
451 679 441 674 432 665 _c
423 655 417 645 415 635 _c
411 617 401 571 387 497 _c
375 431 _l
478 431 _l
484 431 488 426 488 418 _c
}_e{487 416 486 413 485 409 _c
484 405 483 401 481 399 _c
479 397 477 396 475 396 _c
368 396 _l
322 152 _l
316 116 309 80 301 44 _c
293 8 283 -29 269 -68 _c
255 -106 238 -139 216 -165 _c
194 -191 169 -204 140 -204 _c
117 -204 97 -197 79 -185 _c
61 -172 53 -155 53 -134 _c
53 -116 58 -101 69 -89 _c
80 -77 94 -71 111 -71 _c
121 -71 130 -74 138 -81 _c
146 -87 150 -96 150 -107 _c
}_e{150 -121 144 -134 134 -146 _c
123 -158 111 -164 97 -164 _c
_cl}_e}_d
/a{{528 0 38 -10 501 442 _sc
174 -10 _m
132 -10 98 5 74 37 _c
50 68 38 105 38 149 _c
38 191 49 236 71 282 _c
93 328 122 366 160 396 _c
198 426 238 442 282 442 _c
302 442 319 436 335 426 _c
351 415 363 400 372 382 _c
379 408 394 422 416 422 _c
424 422 431 419 437 414 _c
443 409 446 402 446 394 _c
446 392 445 390 445 389 _c
445 388 445 387 445 386 _c
375 107 _l
}_e{370 87 368 70 368 58 _c
368 29 377 15 397 15 _c
417 15 433 28 444 55 _c
455 81 464 112 472 147 _c
473 151 476 153 480 153 _c
492 153 _l
494 153 496 151 498 149 _c
500 147 501 145 501 143 _c
489 96 476 59 462 31 _c
448 3 426 -10 395 -10 _c
372 -10 352 -3 335 9 _c
318 21 307 39 303 61 _c
260 13 217 -10 174 -10 _c
175 15 _m
199 15 222 24 245 42 _c
}_e{267 60 287 81 303 106 _c
303 106 304 107 304 109 _c
358 326 _l
359 329 _l
355 353 346 373 333 390 _c
319 407 302 416 280 416 _c
257 416 236 406 217 388 _c
197 370 181 348 168 323 _c
154 296 142 259 130 213 _c
118 167 113 131 113 105 _c
113 81 118 60 128 42 _c
138 24 153 15 175 15 _c
_cl}_e}_d
end readonly def

/BuildGlyph
 {exch begin
 CharStrings exch
 2 copy known not{pop /.notdef}if
 true 3 1 roll get exec
 end}_d

/BuildChar {
 1 index /Encoding get exch get
 1 index /BuildGlyph get exec
}_d

FontName currentdict end definefont pop
end
%%EndProlog
mpldict begin
19.535 185.816 translate
572.931 420.367 0 0 clipbox
100000 setmiterlimit
gsave
0 0 m
572.930875 0 l
572.930875 420.3675 l
0 420.3675 l
cl
1.000 setgray
fill
grestore
gsave
47.996875 22.825 m
447.690875 22.825 l
447.690875 407.355 l
47.996875 407.355 l
cl
1.000 setgray
fill
grestore
2.000 setlinewidth
1 setlinejoin
2 setlinecap
[] 0 setdash
1.000 0.000 0.000 setrgbcolor
gsave
399.7 384.5 48 22.83 clipbox
47.996875 253.543 m
51.554152 261.256086 l
55.031489 268.276333 l
58.468858 274.721094 l
61.826287 280.550479 l
65.143748 285.867617 l
68.381269 290.640662 l
71.538852 294.907925 l
74.656465 298.752806 l
77.734109 302.196542 l
80.731814 305.221473 l
83.689549 307.893907 l
86.607315 310.232522 l
89.485112 312.255329 l
92.32294 313.979694 l
95.120798 315.422349 l
97.918656 316.614707 l
100.676544 317.550211 l
103.434433 318.252698 l
106.192321 318.72722 l
108.95021 318.978831 l
111.748068 319.011494 l
114.585895 318.820993 l
117.463692 318.403432 l
120.381458 317.755258 l
123.379163 316.859834 l
126.456807 315.705304 l
129.61439 314.280396 l
132.851911 312.57449 l
136.209341 310.552142 l
139.686679 308.195332 l
143.283925 305.487115 l
147.041048 302.377247 l
150.958049 298.842641 l
155.034928 294.862122 l
159.311654 290.373409 l
163.828196 285.305488 l
168.584555 279.628757 l
173.620699 273.266579 l
178.976599 266.137571 l
184.732192 258.101049 l
191.007388 248.948437 l
197.922094 238.460606 l
205.796066 226.102435 l
215.388722 210.613119 l
231.016758 184.881946 l
245.845405 160.624209 l
254.958428 146.139069 l
262.552614 134.474496 l
269.267473 124.558653 l
275.382792 115.917571 l
281.018477 108.332006 l
286.294438 101.598388 l
291.250643 95.629137 l
295.927063 90.34028 l
300.363667 85.653719 l
304.600423 81.498864 l
308.637332 77.848437 l
312.474395 74.672425 l
316.191549 71.881699 l
319.748826 69.486144 l
323.186194 67.437316 l
326.503654 65.717135 l
329.701206 64.306534 l
332.818819 63.172632 l
335.856494 62.304112 l
338.814229 61.689049 l
341.692026 61.314977 l
344.529854 61.168454 l
347.327712 61.24554 l
350.0856 61.54197 l
352.843489 62.062337 l
355.601377 62.811694 l
358.359266 63.795094 l
361.117155 65.017589 l
363.875043 66.484233 l
366.672901 68.226803 l
369.510729 70.26168 l
372.348556 72.571347 l
375.226353 75.199816 l
378.184088 78.207703 l
381.181793 81.579495 l
384.219468 85.334829 l
387.297112 89.494044 l
390.454694 94.139427 l
393.652246 99.241595 l
396.929737 104.895153 l
400.247197 111.063208 l
403.644596 117.853624 l
407.121934 125.310023 l
410.639241 133.383349 l
414.236487 142.203652 l
417.913672 151.820508 l
421.630826 162.171105 l
425.427919 173.41028 l
429.304951 185.59415 l
433.221952 198.64439 l
437.218892 212.743447 l
441.295771 227.95459 l
445.412619 244.182061 l
447.690875 253.543 l
447.690875 253.543 l
stroke
grestore
0 setlinecap
[3 5 1 5] 0 setdash
gsave
399.7 384.5 48 22.83 clipbox
47.996875 253.543 m
51.953846 265.8581 l
55.830877 277.207718 l
59.62797 287.649343 l
63.385094 297.337613 l
67.062279 306.212321 l
70.659525 314.324245 l
74.216801 321.80287 l
77.694139 328.601814 l
81.091538 334.765743 l
84.448968 340.401638 l
87.726459 345.475324 l
90.96398 350.080338 l
94.121563 354.190037 l
97.239176 357.88547 l
100.27685 361.146927 l
103.274555 364.043884 l
106.232291 366.595476 l
109.150057 368.820164 l
112.027854 370.735745 l
114.865681 372.359369 l
117.663539 373.70756 l
120.461397 374.810277 l
123.259255 375.672798 l
126.057113 376.300396 l
128.854971 376.698349 l
131.652829 376.871931 l
134.490657 376.824207 l
137.368453 376.551276 l
140.28622 376.049579 l
143.243955 375.315911 l
146.28163 374.333034 l
149.399243 373.089617 l
152.596795 371.574955 l
155.914255 369.755657 l
159.351623 367.613629 l
162.9089 365.131804 l
166.626054 362.261996 l
170.463117 359.016211 l
174.500026 355.305384 l
178.696813 351.142567 l
183.133416 346.423249 l
187.809836 341.117098 l
192.726072 335.198297 l
197.962064 328.542334 l
203.597749 321.011167 l
209.673098 312.514562 l
216.347988 302.79026 l
223.902204 291.380952 l
232.895319 277.377929 l
245.565619 257.19556 l
265.51035 225.43732 l
274.623373 211.374833 l
282.17759 200.115991 l
288.852479 190.557103 l
294.927828 182.23753 l
300.523544 174.943862 l
305.759536 168.478098 l
310.675772 162.754701 l
315.312222 157.691701 l
319.708856 153.212923 l
323.905643 149.249598 l
327.902583 145.774761 l
331.739646 142.728571 l
335.41683 140.088331 l
338.974107 137.805499 l
342.371506 135.884452 l
345.688966 134.262151 l
348.886518 132.943887 l
352.004131 131.898116 l
355.041806 131.113669 l
357.999541 130.578759 l
360.877338 130.281056 l
363.715166 130.20828 l
366.513024 130.356557 l
369.310882 130.7286 l
372.06877 131.319462 l
374.826659 132.137923 l
377.584547 133.189035 l
380.342436 134.477851 l
383.140294 136.03343 l
385.938152 137.84413 l
388.775979 139.946725 l
391.653776 142.358158 l
394.571542 145.096005 l
397.529278 148.178495 l
400.526983 151.624523 l
403.604627 155.506347 l
406.72224 159.800955 l
409.919792 164.592152 l
413.157313 169.849962 l
416.474774 175.670639 l
419.832203 182.016642 l
423.269572 188.997629 l
426.746909 196.567862 l
430.304186 204.851407 l
433.941401 213.896246 l
437.618586 223.643375 l
441.37571 234.240916 l
445.172803 245.619849 l
447.690875 253.543 l
447.690875 253.543 l
stroke
grestore
2 setlinecap
[] 0 setdash
0.000 0.000 1.000 setrgbcolor
gsave
399.7 384.5 48 22.83 clipbox
47.996875 253.543 m
52.233631 236.352466 l
56.430418 220.243221 l
60.547267 205.312363 l
64.584176 191.493289 l
68.581116 178.597133 l
72.498117 166.702904 l
76.33518 155.751473 l
80.092303 145.686352 l
83.809457 136.356562 l
87.446673 127.820362 l
91.003949 120.02787 l
94.521257 112.85292 l
97.958625 106.340109 l
101.316055 100.445575 l
104.633515 95.065343 l
107.871036 90.23195 l
111.068588 85.85468 l
114.186201 81.958627 l
117.263845 78.465385 l
120.26155 75.393199 l
123.219286 72.675072 l
126.137052 70.29229 l
129.014849 68.226803 l
131.852676 66.46121 l
134.650534 64.978743 l
137.448392 63.747402 l
140.206281 62.774283 l
142.964169 62.034987 l
145.722058 61.524462 l
148.479947 61.237653 l
151.277805 61.170104 l
154.115632 61.326069 l
156.993429 61.709478 l
159.911195 62.323922 l
162.9089 63.185629 l
165.946574 64.290472 l
169.104157 65.678877 l
172.341678 67.348549 l
175.699108 69.334602 l
179.176446 71.655194 l
182.773692 74.327413 l
186.530815 77.40128 l
190.407847 80.862918 l
194.484726 84.805104 l
198.761452 89.25584 l
203.238025 94.240201 l
207.954414 99.82846 l
212.950589 106.097617 l
218.266519 113.129625 l
223.982143 121.065723 l
230.1774 130.056053 l
237.012168 140.375985 l
244.766231 152.499667 l
254.079101 167.492127 l
268.028422 190.425605 l
285.295203 218.728414 l
294.528134 233.426755 l
302.16229 245.174115 l
308.917118 255.169885 l
315.032436 263.831837 l
320.708091 271.491745 l
325.984052 278.245152 l
330.940258 284.234704 l
335.616677 289.544233 l
340.053281 294.251768 l
344.290037 298.427891 l
348.326947 302.099708 l
352.203978 305.328825 l
355.921133 308.138093 l
359.478409 310.552142 l
362.915778 312.619534 l
366.233238 314.358278 l
369.43079 315.787373 l
372.548403 316.939877 l
375.586077 317.82706 l
378.543813 318.460808 l
381.42161 318.853545 l
384.259437 319.018942 l
387.057295 318.96092 l
389.815184 318.683724 l
392.573072 318.18303 l
395.330961 317.453786 l
398.08885 316.490938 l
400.846738 315.289434 l
403.604627 313.844221 l
406.402485 312.123842 l
409.200343 310.142163 l
412.03817 307.859832 l
414.915967 305.259639 l
417.833733 302.323736 l
420.831438 298.986962 l
423.869113 295.267819 l
426.946756 291.145996 l
430.104339 286.539735 l
433.301891 281.477966 l
436.579382 275.866635 l
439.896842 269.742165 l
443.294241 262.997262 l
446.731609 255.676469 l
447.690875 253.543 l
447.690875 253.543 l
stroke
grestore
0 setlinecap
[3 5 1 5] 0 setdash
gsave
399.7 384.5 48 22.83 clipbox
47.996875 253.543 m
51.953846 241.2279 l
55.830877 229.878282 l
59.62797 219.436657 l
63.385094 209.748387 l
67.062279 200.873679 l
70.659525 192.761755 l
74.216801 185.28313 l
77.694139 178.484186 l
81.091538 172.320257 l
84.448968 166.684362 l
87.726459 161.610676 l
90.96398 157.005662 l
94.121563 152.895963 l
97.239176 149.20053 l
100.27685 145.939073 l
103.274555 143.042116 l
106.232291 140.490524 l
109.150057 138.265836 l
112.027854 136.350255 l
114.865681 134.726631 l
117.663539 133.37844 l
120.461397 132.275723 l
123.259255 131.413202 l
126.057113 130.785604 l
128.854971 130.387651 l
131.652829 130.214069 l
134.490657 130.261793 l
137.368453 130.534724 l
140.28622 131.036421 l
143.243955 131.770089 l
146.28163 132.752966 l
149.399243 133.996383 l
152.596795 135.511045 l
155.914255 137.330343 l
159.351623 139.472371 l
162.9089 141.954196 l
166.626054 144.824004 l
170.463117 148.069789 l
174.500026 151.780616 l
178.696813 155.943433 l
183.133416 160.662751 l
187.809836 165.968902 l
192.726072 171.887703 l
197.962064 178.543666 l
203.597749 186.074833 l
209.673098 194.571438 l
216.347988 204.29574 l
223.902204 215.705048 l
232.895319 229.708071 l
245.565619 249.89044 l
265.51035 281.64868 l
274.623373 295.711167 l
282.17759 306.970009 l
288.852479 316.528897 l
294.927828 324.84847 l
300.523544 332.142138 l
305.759536 338.607902 l
310.675772 344.331299 l
315.312222 349.394299 l
319.708856 353.873077 l
323.905643 357.836402 l
327.902583 361.311239 l
331.739646 364.357429 l
335.41683 366.997669 l
338.974107 369.280501 l
342.371506 371.201548 l
345.688966 372.823849 l
348.886518 374.142113 l
352.004131 375.187884 l
355.041806 375.972331 l
357.999541 376.507241 l
360.877338 376.804944 l
363.715166 376.87772 l
366.513024 376.729443 l
369.310882 376.3574 l
372.06877 375.766538 l
374.826659 374.948077 l
377.584547 373.896965 l
380.342436 372.608149 l
383.140294 371.05257 l
385.938152 369.24187 l
388.775979 367.139275 l
391.653776 364.727842 l
394.571542 361.989995 l
397.529278 358.907505 l
400.526983 355.461477 l
403.604627 351.579653 l
406.72224 347.285045 l
409.919792 342.493848 l
413.157313 337.236038 l
416.474774 331.415361 l
419.832203 325.069358 l
423.269572 318.088371 l
426.746909 310.518138 l
430.304186 302.234593 l
433.941401 293.189754 l
437.618586 283.442625 l
441.37571 272.845084 l
445.172803 261.466151 l
447.690875 253.543 l
447.690875 253.543 l
stroke
grestore
1.500 setlinewidth
[6 6] 0 setdash
0.000 setgray
gsave
399.7 384.5 48 22.83 clipbox
227.859175 22.825 m
227.859175 407.355 l
stroke
grestore
gsave
399.7 384.5 48 22.83 clipbox
267.828575 22.825 m
267.828575 407.355 l
stroke
grestore
1.000 setlinewidth
0 setlinejoin
2 setlinecap
[] 0 setdash
gsave
47.996875 407.355 m
447.690875 407.355 l
stroke
grestore
gsave
447.690875 22.825 m
447.690875 407.355 l
stroke
grestore
gsave
47.996875 22.825 m
447.690875 22.825 l
stroke
grestore
gsave
47.996875 22.825 m
47.996875 407.355 l
stroke
grestore
0.500 setlinewidth
1 setlinejoin
0 setlinecap
gsave
/o {
gsave
newpath
translate
0.5 setlinewidth
1 setlinejoin
0 setlinecap
0 0 m
0 4 l

gsave
0.000 setgray
fill
grestore
stroke
grestore
} bind def
47.9969 22.825 o
grestore
gsave
/o {
gsave
newpath
translate
0.5 setlinewidth
1 setlinejoin
0 setlinecap
0 0 m
0 -4 l

gsave
0.000 setgray
fill
grestore
stroke
grestore
} bind def
47.9969 407.355 o
grestore
/BitstreamVeraSans-Roman findfont
12.000 scalefont
setfont
gsave
38.450000 9.700000 translate
0.000000 rotate
0.000000 0.000000 m /zero glyphshow
7.634766 0.000000 m /period glyphshow
11.449219 0.000000 m /zero glyphshow
grestore
gsave
/o {
gsave
newpath
translate
0.5 setlinewidth
1 setlinejoin
0 setlinecap
0 0 m
0 4 l

gsave
0.000 setgray
fill
grestore
stroke
grestore
} bind def
127.936 22.825 o
grestore
gsave
/o {
gsave
newpath
translate
0.5 setlinewidth
1 setlinejoin
0 setlinecap
0 0 m
0 -4 l

gsave
0.000 setgray
fill
grestore
stroke
grestore
} bind def
127.936 407.355 o
grestore
gsave
118.388800 9.700000 translate
0.000000 rotate
0.000000 0.000000 m /zero glyphshow
7.634766 0.000000 m /period glyphshow
11.449219 0.000000 m /two glyphshow
grestore
gsave
/o {
gsave
newpath
translate
0.5 setlinewidth
1 setlinejoin
0 setlinecap
0 0 m
0 4 l

gsave
0.000 setgray
fill
grestore
stroke
grestore
} bind def
207.874 22.825 o
grestore
gsave
/o {
gsave
newpath
translate
0.5 setlinewidth
1 setlinejoin
0 setlinecap
0 0 m
0 -4 l

gsave
0.000 setgray
fill
grestore
stroke
grestore
} bind def
207.874 407.355 o
grestore
gsave
198.327600 9.700000 translate
0.000000 rotate
0.000000 0.000000 m /zero glyphshow
7.634766 0.000000 m /period glyphshow
11.449219 0.000000 m /four glyphshow
grestore
gsave
/o {
gsave
newpath
translate
0.5 setlinewidth
1 setlinejoin
0 setlinecap
0 0 m
0 4 l

gsave
0.000 setgray
fill
grestore
stroke
grestore
} bind def
287.813 22.825 o
grestore
gsave
/o {
gsave
newpath
translate
0.5 setlinewidth
1 setlinejoin
0 setlinecap
0 0 m
0 -4 l

gsave
0.000 setgray
fill
grestore
stroke
grestore
} bind def
287.813 407.355 o
grestore
gsave
278.266400 9.700000 translate
0.000000 rotate
0.000000 0.000000 m /zero glyphshow
7.634766 0.000000 m /period glyphshow
11.449219 0.000000 m /six glyphshow
grestore
gsave
/o {
gsave
newpath
translate
0.5 setlinewidth
1 setlinejoin
0 setlinecap
0 0 m
0 4 l

gsave
0.000 setgray
fill
grestore
stroke
grestore
} bind def
367.752 22.825 o
grestore
gsave
/o {
gsave
newpath
translate
0.5 setlinewidth
1 setlinejoin
0 setlinecap
0 0 m
0 -4 l

gsave
0.000 setgray
fill
grestore
stroke
grestore
} bind def
367.752 407.355 o
grestore
gsave
358.205200 9.700000 translate
0.000000 rotate
0.000000 0.000000 m /zero glyphshow
7.634766 0.000000 m /period glyphshow
11.449219 0.000000 m /eight glyphshow
grestore
gsave
/o {
gsave
newpath
translate
0.5 setlinewidth
1 setlinejoin
0 setlinecap
0 0 m
0 4 l

gsave
0.000 setgray
fill
grestore
stroke
grestore
} bind def
447.691 22.825 o
grestore
gsave
/o {
gsave
newpath
translate
0.5 setlinewidth
1 setlinejoin
0 setlinecap
0 0 m
0 -4 l

gsave
0.000 setgray
fill
grestore
stroke
grestore
} bind def
447.691 407.355 o
grestore
gsave
438.144000 9.700000 translate
0.000000 rotate
0.000000 0.000000 m /one glyphshow
7.634766 0.000000 m /period glyphshow
11.449219 0.000000 m /zero glyphshow
grestore
gsave
/o {
gsave
newpath
translate
0.5 setlinewidth
1 setlinejoin
0 setlinecap
0 0 m
4 0 l

gsave
0.000 setgray
fill
grestore
stroke
grestore
} bind def
47.9969 22.825 o
grestore
gsave
/o {
gsave
newpath
translate
0.5 setlinewidth
1 setlinejoin
0 setlinecap
0 0 m
-4 0 l

gsave
0.000 setgray
fill
grestore
stroke
grestore
} bind def
447.691 22.825 o
grestore
gsave
7.200000 19.512500 translate
0.000000 rotate
0.000000 0.000000 m /minus glyphshow
10.054688 0.000000 m /zero glyphshow
17.689453 0.000000 m /period glyphshow
21.503906 0.000000 m /one glyphshow
29.138672 0.000000 m /five glyphshow
grestore
gsave
/o {
gsave
newpath
translate
0.5 setlinewidth
1 setlinejoin
0 setlinecap
0 0 m
4 0 l

gsave
0.000 setgray
fill
grestore
stroke
grestore
} bind def
47.9969 99.731 o
grestore
gsave
/o {
gsave
newpath
translate
0.5 setlinewidth
1 setlinejoin
0 setlinecap
0 0 m
-4 0 l

gsave
0.000 setgray
fill
grestore
stroke
grestore
} bind def
447.691 99.731 o
grestore
gsave
7.200000 96.418500 translate
0.000000 rotate
0.000000 0.000000 m /minus glyphshow
10.054688 0.000000 m /zero glyphshow
17.689453 0.000000 m /period glyphshow
21.503906 0.000000 m /one glyphshow
29.138672 0.000000 m /zero glyphshow
grestore
gsave
/o {
gsave
newpath
translate
0.5 setlinewidth
1 setlinejoin
0 setlinecap
0 0 m
4 0 l

gsave
0.000 setgray
fill
grestore
stroke
grestore
} bind def
47.9969 176.637 o
grestore
gsave
/o {
gsave
newpath
translate
0.5 setlinewidth
1 setlinejoin
0 setlinecap
0 0 m
-4 0 l

gsave
0.000 setgray
fill
grestore
stroke
grestore
} bind def
447.691 176.637 o
grestore
gsave
7.200000 173.324500 translate
0.000000 rotate
0.000000 0.000000 m /minus glyphshow
10.054688 0.000000 m /zero glyphshow
17.689453 0.000000 m /period glyphshow
21.503906 0.000000 m /zero glyphshow
29.138672 0.000000 m /five glyphshow
grestore
gsave
/o {
gsave
newpath
translate
0.5 setlinewidth
1 setlinejoin
0 setlinecap
0 0 m
4 0 l

gsave
0.000 setgray
fill
grestore
stroke
grestore
} bind def
47.9969 253.543 o
grestore
gsave
/o {
gsave
newpath
translate
0.5 setlinewidth
1 setlinejoin
0 setlinecap
0 0 m
-4 0 l

gsave
0.000 setgray
fill
grestore
stroke
grestore
} bind def
447.691 253.543 o
grestore
gsave
17.262500 250.230500 translate
0.000000 rotate
0.000000 0.000000 m /zero glyphshow
7.634766 0.000000 m /period glyphshow
11.449219 0.000000 m /zero glyphshow
19.083984 0.000000 m /zero glyphshow
grestore
gsave
/o {
gsave
newpath
translate
0.5 setlinewidth
1 setlinejoin
0 setlinecap
0 0 m
4 0 l

gsave
0.000 setgray
fill
grestore
stroke
grestore
} bind def
47.9969 330.449 o
grestore
gsave
/o {
gsave
newpath
translate
0.5 setlinewidth
1 setlinejoin
0 setlinecap
0 0 m
-4 0 l

gsave
0.000 setgray
fill
grestore
stroke
grestore
} bind def
447.691 330.449 o
grestore
gsave
17.262500 327.136500 translate
0.000000 rotate
0.000000 0.000000 m /zero glyphshow
7.634766 0.000000 m /period glyphshow
11.449219 0.000000 m /zero glyphshow
19.083984 0.000000 m /five glyphshow
grestore
gsave
17.262500 404.042500 translate
0.000000 rotate
0.000000 0.000000 m /zero glyphshow
7.634766 0.000000 m /period glyphshow
11.449219 0.000000 m /one glyphshow
19.083984 0.000000 m /zero glyphshow
grestore
gsave
216.859175 32.825000 translate
0.000000 rotate
/Cmmi10 findfont
14.4 scalefont
setfont
0.000000 0.640625 moveto
/a glyphshow


grestore
gsave
257.328575 32.825000 translate
0.000000 rotate
/Cmmi10 findfont
14.4 scalefont
setfont
0.000000 0.015625 moveto
/b glyphshow


grestore
1.000 setlinewidth
0 setlinejoin
gsave
454.890875 168.53 m
565.730875 168.53 l
565.730875 261.65 l
454.890875 261.65 l
cl
gsave
1.000 setgray
fill
grestore
stroke
grestore
2.000 setlinewidth
1 setlinejoin
2 setlinecap
1.000 0.000 0.000 setrgbcolor
gsave
464.970875 249.93 m
485.130875 249.93 l
stroke
grestore
0.000 setgray
gsave
500.970875 244.890000 translate
0.000000 rotate
/Cmmi10 findfont
14.4 scalefont
setfont
0.000000 0.203125 moveto
/x glyphshow

/STIXGeneral-Regular findfont
14.4 scalefont
setfont
10.740964 0.203125 moveto
/uni21A6 glyphshow

/Cmmi10 findfont
14.4 scalefont
setfont
26.579004 0.203125 moveto
/f glyphshow

/Cmr10 findfont
10.08 scalefont
setfont
33.612695 -2.245775 moveto
/one glyphshow

/Cmr10 findfont
14.4 scalefont
setfont
39.567752 0.203125 moveto
/parenleft glyphshow

/Cmmi10 findfont
14.4 scalefont
setfont
45.153948 0.203125 moveto
/x glyphshow

/Cmr10 findfont
14.4 scalefont
setfont
53.368121 0.203125 moveto
/parenright glyphshow


grestore
0 setlinecap
[3 5 1 5] 0 setdash
1.000 0.000 0.000 setrgbcolor
gsave
464.970875 227.73 m
485.130875 227.73 l
stroke
grestore
0.000 setgray
gsave
500.970875 222.690000 translate
0.000000 rotate
/Cmmi10 findfont
14.4 scalefont
setfont
0.000000 0.203125 moveto
/x glyphshow

/STIXGeneral-Regular findfont
14.4 scalefont
setfont
10.740964 0.203125 moveto
/uni21A6 glyphshow

/Cmmi10 findfont
14.4 scalefont
setfont
26.579004 0.203125 moveto
/g glyphshow

/Cmr10 findfont
10.08 scalefont
setfont
33.444055 -2.245775 moveto
/one glyphshow

/Cmr10 findfont
14.4 scalefont
setfont
39.399111 0.203125 moveto
/parenleft glyphshow

/Cmmi10 findfont
14.4 scalefont
setfont
44.985308 0.203125 moveto
/x glyphshow

/Cmr10 findfont
14.4 scalefont
setfont
53.199481 0.203125 moveto
/parenright glyphshow


grestore
2 setlinecap
[] 0 setdash
0.000 0.000 1.000 setrgbcolor
gsave
464.970875 205.53 m
485.130875 205.53 l
stroke
grestore
0.000 setgray
gsave
500.970875 200.490000 translate
0.000000 rotate
/Cmmi10 findfont
14.4 scalefont
setfont
0.000000 0.203125 moveto
/x glyphshow

/STIXGeneral-Regular findfont
14.4 scalefont
setfont
10.740964 0.203125 moveto
/uni21A6 glyphshow

/Cmmi10 findfont
14.4 scalefont
setfont
26.579004 0.203125 moveto
/f glyphshow

/Cmr10 findfont
10.08 scalefont
setfont
33.612695 -2.245775 moveto
/two glyphshow

/Cmr10 findfont
14.4 scalefont
setfont
39.567752 0.203125 moveto
/parenleft glyphshow

/Cmmi10 findfont
14.4 scalefont
setfont
45.153948 0.203125 moveto
/x glyphshow

/Cmr10 findfont
14.4 scalefont
setfont
53.368121 0.203125 moveto
/parenright glyphshow


grestore
0 setlinecap
[3 5 1 5] 0 setdash
0.000 0.000 1.000 setrgbcolor
gsave
464.970875 183.33 m
485.130875 183.33 l
stroke
grestore
0.000 setgray
gsave
500.970875 178.290000 translate
0.000000 rotate
/Cmmi10 findfont
14.4 scalefont
setfont
0.000000 0.203125 moveto
/x glyphshow

/STIXGeneral-Regular findfont
14.4 scalefont
setfont
10.740964 0.203125 moveto
/uni21A6 glyphshow

/Cmmi10 findfont
14.4 scalefont
setfont
26.579004 0.203125 moveto
/g glyphshow

/Cmr10 findfont
10.08 scalefont
setfont
33.444055 -2.245775 moveto
/two glyphshow

/Cmr10 findfont
14.4 scalefont
setfont
39.399111 0.203125 moveto
/parenleft glyphshow

/Cmmi10 findfont
14.4 scalefont
setfont
44.985308 0.203125 moveto
/x glyphshow

/Cmr10 findfont
14.4 scalefont
setfont
53.199481 0.203125 moveto
/parenright glyphshow


grestore

end
showpage
