%!PS-Adobe-3.0 EPSF-3.0
%%Title: ./results/value_functions.eps
%%Creator: matplotlib version 1.5.1, http://matplotlib.org/
%%CreationDate: Sat Oct  7 16:48:37 2017
%%Orientation: portrait
%%BoundingBox: -19 185 631 606
%%EndComments
%%BeginProlog
/mpldict 12 dict def
mpldict begin
/m { moveto } bind def
/l { lineto } bind def
/r { rlineto } bind def
/c { curveto } bind def
/cl { closepath } bind def
/box {
m
1 index 0 r
0 exch r
neg 0 r
cl
} bind def
/clipbox {
box
clip
newpath
} bind def
%!PS-Adobe-3.0 Resource-Font
%%Title: STIXGeneral-Regular
%%Copyright: Copyright (c) 2001-2010 by the STI Pub Companies, consisting of the American Chemical Society, the American Institute of Physics, the American Mathematical Society, the American Physical Society, Elsevier, Inc., and The Institute of Electrical and Electronic Engineers, Inc. Portions copyright (c) 1998-2003 by MicroPress, Inc. Portions copyright (c) 1990 by Elsevier, Inc. All rights reserved.
%%Creator: Converted from TrueType to type 3 by PPR
25 dict begin
/_d{bind def}bind def
/_m{moveto}_d
/_l{lineto}_d
/_cl{closepath eofill}_d
/_c{curveto}_d
/_sc{7 -1 roll{setcachedevice}{pop pop pop pop pop pop}ifelse}_d
/_e{exec}_d
/FontName /STIXGeneral-Regular def
/PaintType 0 def
/FontMatrix[.001 0 0 .001 0 0]def
/FontBBox[-970 -443 2000 1023]def
/FontType 3 def
/Encoding [ /uni21A6 ] def
/FontInfo 10 dict dup begin
/FamilyName (STIXGeneral) def
/FullName (STIXGeneral-Regular) def
/Notice (Copyright (c) 2001-2010 by the STI Pub Companies, consisting of the American Chemical Society, the American Institute of Physics, the American Mathematical Society, the American Physical Society, Elsevier, Inc., and The Institute of Electrical and Electronic Engineers, Inc. Portions copyright (c) 1998-2003 by MicroPress, Inc. Portions copyright (c) 1990 by Elsevier, Inc. All rights reserved. STIX Fonts(TM) is a trademark of The Institute of Electrical and Electronics Engineers, Inc.) def
/Weight (Regular) def
/Version (Version 1.0.0) def
/ItalicAngle 0.0 def
/isFixedPitch false def
/UnderlinePosition -75 def
/UnderlineThickness 50 def
end readonly def
/CharStrings 1 dict dup begin
/uni21A6{{926 0 70 57 857 450 _sc
857 258 _m
857 248 _l
780 215 701 151 619 57 _c
599 76 _l
617 102 645 134 681 172 _c
690 181 695 190 695 200 _c
695 213 686 220 669 220 _c
120 220 _l
120 57 _l
70 57 _l
70 450 _l
120 450 _l
120 286 _l
670 286 _l
678 286 684 288 689 293 _c
693 297 696 302 696 308 _c
696 315 691 323 682 333 _c
650 363 623 395 600 431 _c
620 450 _l
}_e{704 352 783 288 857 258 _c
_cl}_e}_d
end readonly def

/BuildGlyph
 {exch begin
 CharStrings exch
 2 copy known not{pop /.notdef}if
 true 3 1 roll get exec
 end}_d

/BuildChar {
 1 index /Encoding get exch get
 1 index /BuildGlyph get exec
}_d

FontName currentdict end definefont pop
%!PS-Adobe-3.0 Resource-Font
%%Title: cmsy10
%%Copyright: Copyright (C) 1994, Basil K. Malyshev. All Rights Reserved.012BaKoMa Fonts Collection, Level-B.
%%Creator: Converted from TrueType to type 3 by PPR
25 dict begin
/_d{bind def}bind def
/_m{moveto}_d
/_l{lineto}_d
/_cl{closepath eofill}_d
/_c{curveto}_d
/_sc{7 -1 roll{setcachedevice}{pop pop pop pop pop pop}ifelse}_d
/_e{exec}_d
/FontName /Cmsy10 def
/PaintType 0 def
/FontMatrix[.001 0 0 .001 0 0]def
/FontBBox[-29 -960 1123 779]def
/FontType 3 def
/Encoding [ /asteriskmath /minus ] def
/FontInfo 10 dict dup begin
/FamilyName (cmsy10) def
/FullName (cmsy10) def
/Notice (Copyright (C) 1994, Basil K. Malyshev. All Rights Reserved.012BaKoMa Fonts Collection, Level-B. ) def
/Weight (Regular) def
/Version (1.1/12-Nov-94) def
/ItalicAngle 0.0 def
/isFixedPitch false def
/UnderlinePosition -133 def
/UnderlineThickness 20 def
end readonly def
/CharStrings 2 dict dup begin
/asteriskmath{{500 0 65 34 434 465 _sc
94 127 _m
86 127 80 130 74 136 _c
68 142 65 149 65 157 _c
65 168 69 176 79 181 _c
223 250 _l
79 318 _l
69 322 65 330 65 342 _c
65 349 68 356 74 362 _c
80 368 86 372 94 372 _c
99 372 104 370 108 367 _c
236 274 _l
221 437 _l
221 445 223 451 229 457 _c
235 462 242 465 250 465 _c
258 465 264 462 270 457 _c
275 452 278 446 278 439 _c
}_e{278 437 _l
263 274 _l
391 367 _l
395 370 399 372 405 372 _c
413 372 419 368 425 362 _c
431 356 434 349 434 342 _c
434 330 429 322 420 318 _c
276 250 _l
420 181 _l
429 176 434 168 434 157 _c
434 149 431 142 425 136 _c
419 130 413 127 405 127 _c
399 127 395 128 391 132 _c
263 225 _l
278 63 _l
278 60 _l
278 52 275 46 269 41 _c
263 36 257 34 250 34 _c
}_e{242 34 235 36 229 42 _c
223 47 221 54 221 62 _c
236 225 _l
108 132 _l
104 128 99 127 94 127 _c
_cl}_e}_d
/minus{777 0 83 230 694 270 _sc
102 230 _m
96 230 92 232 88 236 _c
84 240 83 245 83 250 _c
83 254 84 259 88 263 _c
92 267 96 270 102 270 _c
676 270 _l
681 270 685 267 689 263 _c
692 259 694 254 694 250 _c
694 245 692 240 689 236 _c
685 232 681 230 676 230 _c
102 230 _l
_cl}_d
end readonly def

/BuildGlyph
 {exch begin
 CharStrings exch
 2 copy known not{pop /.notdef}if
 true 3 1 roll get exec
 end}_d

/BuildChar {
 1 index /Encoding get exch get
 1 index /BuildGlyph get exec
}_d

FontName currentdict end definefont pop
%!PS-Adobe-3.0 Resource-Font
%%Title: cmr10
%%Copyright: Copyright (C) 1994, Basil K. Malyshev. All Rights Reserved.012BaKoMa Fonts Collection, Level-B.
%%Creator: Converted from TrueType to type 3 by PPR
25 dict begin
/_d{bind def}bind def
/_m{moveto}_d
/_l{lineto}_d
/_cl{closepath eofill}_d
/_c{curveto}_d
/_sc{7 -1 roll{setcachedevice}{pop pop pop pop pop pop}ifelse}_d
/_e{exec}_d
/FontName /Cmr10 def
/PaintType 0 def
/FontMatrix[.001 0 0 .001 0 0]def
/FontBBox[-44 -250 1009 750]def
/FontType 3 def
/Encoding [ /zero /two /bracketleft /parenright /bracketright /tilde /one /parenleft ] def
/FontInfo 10 dict dup begin
/FamilyName (cmr10) def
/FullName (cmr10) def
/Notice (Copyright (C) 1994, Basil K. Malyshev. All Rights Reserved.012BaKoMa Fonts Collection, Level-B. ) def
/Weight (Regular) def
/Version (1.1/12-Nov-94) def
/ItalicAngle 0.0 def
/isFixedPitch false def
/UnderlinePosition -133 def
/UnderlineThickness 20 def
end readonly def
/CharStrings 8 dict dup begin
/zero{{500 0 39 -21 460 666 _sc
250 -21 _m
168 -21 112 12 83 79 _c
53 146 39 226 39 319 _c
39 377 44 431 55 482 _c
65 533 86 576 118 612 _c
149 648 193 666 250 666 _c
294 666 330 655 358 634 _c
386 612 407 585 422 551 _c
436 517 446 480 452 441 _c
457 402 460 361 460 319 _c
460 261 454 208 444 158 _c
433 108 412 65 381 31 _c
350 -3 306 -21 250 -21 _c
250 4 _m
}_e{287 4 315 23 333 61 _c
351 99 362 141 366 187 _c
370 233 373 283 373 335 _c
373 385 370 431 366 473 _c
362 515 351 554 333 588 _c
315 622 287 640 250 640 _c
212 640 184 622 166 588 _c
148 554 136 515 132 473 _c
128 431 126 385 126 335 _c
126 297 126 262 128 230 _c
130 197 135 163 143 128 _c
151 93 163 64 181 40 _c
198 16 221 4 250 4 _c
_cl}_e}_d
/two{{500 0 50 0 449 666 _sc
50 0 _m
50 27 _l
50 28 50 30 52 32 _c
207 204 _l
230 229 249 250 264 268 _c
278 285 293 305 307 327 _c
321 349 333 372 341 396 _c
349 419 354 444 354 470 _c
354 497 349 523 339 548 _c
329 573 314 593 294 608 _c
274 623 249 631 221 631 _c
192 631 166 622 143 605 _c
119 587 103 565 94 537 _c
96 537 100 538 105 538 _c
}_e{119 538 132 533 143 523 _c
153 513 159 500 159 484 _c
159 468 153 455 143 445 _c
132 434 119 429 105 429 _c
89 429 76 434 66 445 _c
55 456 50 469 50 484 _c
50 508 54 532 64 554 _c
73 576 86 595 104 613 _c
122 630 142 643 164 652 _c
186 661 210 666 236 666 _c
274 666 309 658 342 642 _c
375 626 401 603 420 573 _c
439 543 449 509 449 470 _c
}_e{449 441 442 414 430 388 _c
417 362 401 338 381 317 _c
361 295 336 271 305 244 _c
274 217 254 199 244 190 _c
131 81 _l
227 81 _l
274 81 313 81 345 82 _c
377 82 394 84 396 86 _c
404 94 412 125 420 178 _c
449 178 _l
421 0 _l
50 0 _l
_cl}_e}_d
/bracketleft{277 0 118 -249 255 750 _sc
118 -249 _m
118 750 _l
255 750 _l
255 710 _l
158 710 _l
158 -209 _l
255 -209 _l
255 -249 _l
118 -249 _l
_cl}_d
/parenright{{388 0 56 -249 291 750 _sc
65 -249 _m
59 -249 56 -246 56 -240 _c
56 -237 56 -235 58 -234 _c
172 -122 229 38 229 250 _c
229 462 172 623 60 733 _c
57 734 56 737 56 741 _c
56 743 57 745 59 747 _c
61 749 63 750 65 750 _c
74 750 _l
76 750 77 749 79 748 _c
127 710 167 664 199 610 _c
231 556 254 498 269 437 _c
283 376 291 314 291 250 _c
291 202 287 156 279 110 _c
}_e{271 64 258 20 241 -24 _c
223 -68 201 -108 175 -146 _c
148 -184 116 -217 79 -247 _c
77 -248 76 -249 74 -249 _c
65 -249 _l
_cl}_e}_d
/bracketright{277 0 22 -249 159 750 _sc
22 -249 _m
22 -209 _l
119 -209 _l
119 710 _l
22 710 _l
22 750 _l
159 750 _l
159 -249 _l
22 -249 _l
_cl}_d
/tilde{500 0 83 572 416 668 _sc
83 589 _m
112 623 _l
138 653 164 668 190 668 _c
202 668 216 664 231 657 _c
246 649 261 642 277 634 _c
292 626 306 623 319 623 _c
345 623 371 638 396 668 _c
416 651 _l
387 617 _l
361 587 335 572 309 572 _c
296 572 282 575 267 583 _c
252 591 237 598 222 606 _c
206 613 192 617 180 617 _c
153 617 127 602 103 572 _c
83 589 _l
_cl}_d
/one{500 0 87 0 421 666 _sc
93 0 _m
93 35 _l
176 35 218 45 218 67 _c
218 592 _l
183 575 139 567 87 567 _c
87 602 _l
168 602 230 623 272 666 _c
286 666 _l
288 666 291 665 293 663 _c
295 661 296 659 296 657 _c
296 67 _l
296 45 337 35 421 35 _c
421 0 _l
93 0 _l
_cl}_d
/parenleft{{388 0 97 -249 332 750 _sc
310 -247 _m
272 -217 240 -184 214 -146 _c
187 -108 165 -67 148 -25 _c
131 17 118 62 110 109 _c
101 155 97 202 97 250 _c
97 298 101 345 110 392 _c
118 438 131 483 149 527 _c
166 570 188 611 215 649 _c
242 687 274 720 310 748 _c
310 749 311 750 315 750 _c
324 750 _l
326 750 327 749 329 747 _c
331 745 332 743 332 741 _c
332 738 331 736 330 735 _c
}_e{297 703 270 668 248 632 _c
226 596 209 557 196 516 _c
183 474 174 432 168 388 _c
162 344 159 298 159 250 _c
159 38 215 -122 329 -232 _c
331 -234 332 -236 332 -240 _c
332 -242 331 -244 329 -246 _c
327 -248 326 -249 324 -249 _c
315 -249 _l
311 -249 310 -248 310 -247 _c
_cl}_e}_d
end readonly def

/BuildGlyph
 {exch begin
 CharStrings exch
 2 copy known not{pop /.notdef}if
 true 3 1 roll get exec
 end}_d

/BuildChar {
 1 index /Encoding get exch get
 1 index /BuildGlyph get exec
}_d

FontName currentdict end definefont pop
%!PS-Adobe-3.0 Resource-Font
%%Title: Bitstream Vera Sans
%%Copyright: Copyright (c) 2003 by Bitstream, Inc. All Rights Reserved.
%%Creator: Converted from TrueType to type 3 by PPR
25 dict begin
/_d{bind def}bind def
/_m{moveto}_d
/_l{lineto}_d
/_cl{closepath eofill}_d
/_c{curveto}_d
/_sc{7 -1 roll{setcachedevice}{pop pop pop pop pop pop}ifelse}_d
/_e{exec}_d
/FontName /BitstreamVeraSans-Roman def
/PaintType 0 def
/FontMatrix[.001 0 0 .001 0 0]def
/FontBBox[-183 -236 1287 928]def
/FontType 3 def
/Encoding [ /period /zero /one /two /four /five /six /eight /minus ] def
/FontInfo 10 dict dup begin
/FamilyName (Bitstream Vera Sans) def
/FullName (Bitstream Vera Sans) def
/Notice (Copyright (c) 2003 by Bitstream, Inc. All Rights Reserved. Bitstream Vera is a trademark of Bitstream, Inc.) def
/Weight (Roman) def
/Version (Release 1.10) def
/ItalicAngle 0.0 def
/isFixedPitch false def
/UnderlinePosition -213 def
/UnderlineThickness 143 def
end readonly def
/CharStrings 9 dict dup begin
/period{318 0 107 0 210 124 _sc
107 124 _m
210 124 _l
210 0 _l
107 0 _l
107 124 _l
_cl}_d
/zero{636 0 66 -13 570 742 _sc
318 664 _m
267 664 229 639 203 589 _c
177 539 165 464 165 364 _c
165 264 177 189 203 139 _c
229 89 267 64 318 64 _c
369 64 407 89 433 139 _c
458 189 471 264 471 364 _c
471 464 458 539 433 589 _c
407 639 369 664 318 664 _c
318 742 _m
399 742 461 709 505 645 _c
548 580 570 486 570 364 _c
570 241 548 147 505 83 _c
461 19 399 -13 318 -13 _c
236 -13 173 19 130 83 _c
87 147 66 241 66 364 _c
66 486 87 580 130 645 _c
173 709 236 742 318 742 _c
_cl}_d
/one{636 0 110 0 544 729 _sc
124 83 _m
285 83 _l
285 639 _l
110 604 _l
110 694 _l
284 729 _l
383 729 _l
383 83 _l
544 83 _l
544 0 _l
124 0 _l
124 83 _l
_cl}_d
/two{{636 0 73 0 536 742 _sc
192 83 _m
536 83 _l
536 0 _l
73 0 _l
73 83 _l
110 121 161 173 226 239 _c
290 304 331 346 348 365 _c
380 400 402 430 414 455 _c
426 479 433 504 433 528 _c
433 566 419 598 392 622 _c
365 646 330 659 286 659 _c
255 659 222 653 188 643 _c
154 632 117 616 78 594 _c
78 694 _l
118 710 155 722 189 730 _c
223 738 255 742 284 742 _c
}_e{359 742 419 723 464 685 _c
509 647 532 597 532 534 _c
532 504 526 475 515 449 _c
504 422 484 390 454 354 _c
446 344 420 317 376 272 _c
332 227 271 164 192 83 _c
_cl}_e}_d
/four{636 0 49 0 580 729 _sc
378 643 _m
129 254 _l
378 254 _l
378 643 _l
352 729 _m
476 729 _l
476 254 _l
580 254 _l
580 172 _l
476 172 _l
476 0 _l
378 0 _l
378 172 _l
49 172 _l
49 267 _l
352 729 _l
_cl}_d
/five{{636 0 77 -13 549 729 _sc
108 729 _m
495 729 _l
495 646 _l
198 646 _l
198 467 _l
212 472 227 476 241 478 _c
255 480 270 482 284 482 _c
365 482 429 459 477 415 _c
525 370 549 310 549 234 _c
549 155 524 94 475 51 _c
426 8 357 -13 269 -13 _c
238 -13 207 -10 175 -6 _c
143 -1 111 6 77 17 _c
77 116 _l
106 100 136 88 168 80 _c
199 72 232 69 267 69 _c
}_e{323 69 368 83 401 113 _c
433 143 450 183 450 234 _c
450 284 433 324 401 354 _c
368 384 323 399 267 399 _c
241 399 214 396 188 390 _c
162 384 135 375 108 363 _c
108 729 _l
_cl}_e}_d
/six{{636 0 70 -13 573 742 _sc
330 404 _m
286 404 251 388 225 358 _c
199 328 186 286 186 234 _c
186 181 199 139 225 109 _c
251 79 286 64 330 64 _c
374 64 409 79 435 109 _c
461 139 474 181 474 234 _c
474 286 461 328 435 358 _c
409 388 374 404 330 404 _c
526 713 _m
526 623 _l
501 635 476 644 451 650 _c
425 656 400 659 376 659 _c
310 659 260 637 226 593 _c
}_e{192 549 172 482 168 394 _c
187 422 211 444 240 459 _c
269 474 301 482 336 482 _c
409 482 467 459 509 415 _c
551 371 573 310 573 234 _c
573 159 550 99 506 54 _c
462 9 403 -13 330 -13 _c
246 -13 181 19 137 83 _c
92 147 70 241 70 364 _c
70 479 97 571 152 639 _c
206 707 280 742 372 742 _c
396 742 421 739 447 735 _c
472 730 498 723 526 713 _c
_cl}_e}_d
/eight{{636 0 68 -13 568 742 _sc
318 346 _m
271 346 234 333 207 308 _c
180 283 167 249 167 205 _c
167 161 180 126 207 101 _c
234 76 271 64 318 64 _c
364 64 401 76 428 102 _c
455 127 469 161 469 205 _c
469 249 455 283 429 308 _c
402 333 365 346 318 346 _c
219 388 _m
177 398 144 418 120 447 _c
96 476 85 511 85 553 _c
85 611 105 657 147 691 _c
188 725 245 742 318 742 _c
}_e{390 742 447 725 489 691 _c
530 657 551 611 551 553 _c
551 511 539 476 515 447 _c
491 418 459 398 417 388 _c
464 377 501 355 528 323 _c
554 291 568 251 568 205 _c
568 134 546 80 503 43 _c
459 5 398 -13 318 -13 _c
237 -13 175 5 132 43 _c
89 80 68 134 68 205 _c
68 251 81 291 108 323 _c
134 355 171 377 219 388 _c
183 544 _m
183 506 194 476 218 455 _c
}_e{242 434 275 424 318 424 _c
360 424 393 434 417 455 _c
441 476 453 506 453 544 _c
453 582 441 611 417 632 _c
393 653 360 664 318 664 _c
275 664 242 653 218 632 _c
194 611 183 582 183 544 _c
_cl}_e}_d
/minus{838 0 106 272 732 355 _sc
106 355 _m
732 355 _l
732 272 _l
106 272 _l
106 355 _l
_cl}_d
end readonly def

/BuildGlyph
 {exch begin
 CharStrings exch
 2 copy known not{pop /.notdef}if
 true 3 1 roll get exec
 end}_d

/BuildChar {
 1 index /Encoding get exch get
 1 index /BuildGlyph get exec
}_d

FontName currentdict end definefont pop
%!PS-Adobe-3.0 Resource-Font
%%Title: cmmi10
%%Copyright: Copyright (C) 1994, Basil K. Malyshev. All Rights Reserved.012BaKoMa Fonts Collection, Level-B.
%%Creator: Converted from TrueType to type 3 by PPR
25 dict begin
/_d{bind def}bind def
/_m{moveto}_d
/_l{lineto}_d
/_cl{closepath eofill}_d
/_c{curveto}_d
/_sc{7 -1 roll{setcachedevice}{pop pop pop pop pop pop}ifelse}_d
/_e{exec}_d
/FontName /Cmmi10 def
/PaintType 0 def
/FontMatrix[.001 0 0 .001 0 0]def
/FontBBox[-34 -250 1048 750]def
/FontType 3 def
/Encoding [ /comma /g /x /U /b /f /y /a /V ] def
/FontInfo 10 dict dup begin
/FamilyName (cmmi10) def
/FullName (cmmi10) def
/Notice (Copyright (C) 1994, Basil K. Malyshev. All Rights Reserved.012BaKoMa Fonts Collection, Level-B. ) def
/Weight (Regular) def
/Version (1.1/12-Nov-94) def
/ItalicAngle 0.0 def
/isFixedPitch false def
/UnderlinePosition -133 def
/UnderlineThickness 20 def
end readonly def
/CharStrings 9 dict dup begin
/comma{277 0 84 -193 205 110 _sc
99 -179 _m
99 -176 100 -173 103 -171 _c
127 -147 145 -120 159 -90 _c
172 -60 179 -28 179 4 _c
179 16 _l
168 5 155 0 139 0 _c
123 0 110 5 100 16 _c
89 26 84 39 84 55 _c
84 71 89 84 100 94 _c
110 104 123 110 139 110 _c
163 110 180 99 190 77 _c
200 55 205 30 205 4 _c
205 -32 197 -67 183 -101 _c
168 -134 147 -164 120 -191 _c
117 -192 115 -193 114 -193 _c
110 -193 107 -191 104 -188 _c
100 -185 99 -182 99 -179 _c
_cl}_d
/g{{477 0 14 -204 476 442 _sc
14 -142 _m
14 -126 19 -111 31 -99 _c
42 -87 56 -81 72 -81 _c
82 -81 91 -84 99 -91 _c
106 -97 110 -106 110 -117 _c
110 -129 106 -139 99 -149 _c
92 -159 83 -166 73 -170 _c
91 -175 119 -178 157 -178 _c
187 -178 215 -166 241 -142 _c
266 -118 283 -91 291 -61 _c
320 55 _l
284 18 246 0 207 0 _c
178 0 153 7 133 22 _c
113 36 97 56 87 80 _c
}_e{76 104 71 130 71 158 _c
71 188 77 220 89 254 _c
101 288 119 319 142 348 _c
164 376 190 399 220 416 _c
249 433 280 442 313 442 _c
332 442 349 436 365 426 _c
381 415 393 401 403 383 _c
409 409 424 422 446 422 _c
454 422 461 419 467 414 _c
473 409 476 402 476 394 _c
476 392 476 390 476 389 _c
476 388 475 387 475 386 _c
361 -67 _l
355 -87 346 -106 332 -124 _c
}_e{318 -141 301 -155 282 -167 _c
263 -179 242 -188 220 -194 _c
198 -200 176 -204 156 -204 _c
118 -204 84 -200 56 -193 _c
28 -185 14 -168 14 -142 _c
209 26 _m
251 26 293 55 335 114 _c
390 332 _l
385 355 376 375 362 391 _c
348 407 331 416 311 416 _c
289 416 268 407 248 389 _c
228 371 212 349 199 324 _c
187 300 175 265 163 220 _c
151 175 146 140 146 114 _c
146 91 151 71 161 53 _c
}_e{171 35 187 26 209 26 _c
_cl}_e}_d
/x{{571 0 31 -10 526 442 _sc
78 29 _m
90 19 106 15 128 15 _c
148 15 167 25 183 45 _c
199 65 210 87 216 111 _c
261 288 _l
268 320 272 342 272 354 _c
272 370 267 385 258 397 _c
248 409 235 416 219 416 _c
198 416 178 409 160 396 _c
141 382 125 365 113 345 _c
100 325 91 304 86 284 _c
84 280 82 278 78 278 _c
66 278 _l
60 278 58 281 58 287 _c
58 290 _l
}_e{64 314 75 338 91 362 _c
107 386 126 405 149 420 _c
171 434 195 442 221 442 _c
245 442 267 435 287 422 _c
307 409 321 391 329 369 _c
340 389 354 407 372 421 _c
390 435 409 442 431 442 _c
445 442 460 439 475 434 _c
490 429 502 421 512 411 _c
521 401 526 388 526 372 _c
526 355 520 340 509 328 _c
498 316 484 310 468 310 _c
457 310 448 313 441 320 _c
}_e{433 327 430 336 430 346 _c
430 360 434 372 444 383 _c
454 393 465 400 479 402 _c
467 411 450 416 429 416 _c
407 416 389 406 373 386 _c
357 366 346 344 340 320 _c
296 143 _l
288 116 285 94 285 77 _c
285 60 289 45 299 33 _c
309 21 322 15 338 15 _c
369 15 397 28 421 56 _c
445 84 462 114 470 147 _c
471 151 474 153 478 153 _c
490 153 _l
492 153 494 152 496 150 _c
}_e{498 148 499 146 499 144 _c
499 143 498 142 498 141 _c
488 101 468 66 438 36 _c
408 5 374 -10 336 -10 _c
311 -10 289 -3 269 9 _c
249 21 236 39 228 62 _c
217 42 202 25 184 11 _c
166 -3 146 -10 126 -10 _c
111 -10 96 -7 81 -3 _c
66 1 54 9 45 19 _c
35 29 31 43 31 59 _c
31 75 36 89 47 102 _c
57 114 71 121 88 121 _c
}_e{98 121 107 117 115 111 _c
123 104 127 95 127 85 _c
127 71 122 58 113 48 _c
103 38 92 31 78 29 _c
_cl}_e}_d
/U{{682 0 66 -21 762 683 _sc
147 139 _m
147 115 151 93 161 74 _c
171 54 185 39 203 29 _c
221 18 242 13 267 13 _c
295 13 323 18 351 30 _c
378 42 402 58 424 79 _c
446 100 464 124 480 151 _c
495 177 506 204 513 230 _c
603 591 _l
604 598 605 603 605 606 _c
605 634 579 648 528 648 _c
521 648 518 652 518 661 _c
520 669 521 675 523 678 _c
524 681 528 683 535 683 _c
}_e{752 683 _l
754 683 757 681 759 678 _c
761 675 762 672 762 670 _c
762 669 761 666 760 662 _c
758 657 757 653 755 651 _c
753 649 751 648 749 648 _c
685 648 648 627 638 587 _c
548 226 _l
540 194 528 164 510 135 _c
492 105 470 79 444 55 _c
418 31 390 12 359 -1 _c
328 -14 296 -21 264 -21 _c
227 -21 193 -13 163 2 _c
133 18 109 40 92 69 _c
74 98 66 132 66 170 _c
}_e{66 192 68 212 73 230 _c
170 618 _l
171 624 172 629 172 632 _c
172 639 168 643 160 644 _c
147 646 123 648 88 648 _c
81 648 78 652 78 661 _c
80 669 82 675 83 678 _c
84 681 88 683 95 683 _c
364 683 _l
370 683 374 678 374 670 _c
374 668 373 665 372 661 _c
371 657 370 654 368 652 _c
366 649 364 648 361 648 _c
320 648 292 645 276 641 _c
267 637 261 628 257 614 _c
}_e{160 226 _l
151 190 147 161 147 139 _c
_cl}_e}_d
/b{{429 0 45 -10 416 694 _sc
173 -10 _m
132 -10 100 5 78 36 _c
56 67 45 104 45 147 _c
45 153 46 165 49 183 _c
52 201 54 212 54 217 _c
151 605 _l
153 616 155 625 156 632 _c
156 642 134 648 91 648 _c
84 648 81 652 81 661 _c
81 663 82 666 83 670 _c
84 674 85 677 87 679 _c
89 681 91 683 95 683 _c
230 694 _l
238 694 242 689 242 681 _c
168 386 _l
}_e{206 423 244 442 282 442 _c
310 442 335 434 355 419 _c
375 404 391 384 401 360 _c
411 336 416 310 416 282 _c
416 250 409 216 397 182 _c
384 148 367 116 345 86 _c
323 56 297 33 267 16 _c
237 -1 206 -10 173 -10 _c
175 15 _m
197 15 219 24 239 43 _c
259 62 275 84 287 108 _c
300 134 312 170 324 216 _c
336 262 342 298 342 326 _c
342 350 337 371 327 389 _c
}_e{317 407 301 416 280 416 _c
256 416 233 407 211 389 _c
189 371 169 350 153 326 _c
125 213 _l
114 171 108 137 108 112 _c
108 86 113 64 124 44 _c
135 24 152 15 175 15 _c
_cl}_e}_d
/f{{489 0 53 -204 552 705 _sc
97 -164 _m
109 -173 124 -178 142 -178 _c
166 -178 185 -151 200 -99 _c
206 -73 223 9 251 151 _c
297 396 _l
211 396 _l
204 396 201 400 201 409 _c
203 423 208 431 214 431 _c
303 431 _l
315 496 _l
319 516 322 533 326 548 _c
329 562 332 576 336 588 _c
340 600 345 614 353 630 _c
364 652 379 670 399 684 _c
418 698 439 705 462 705 _c
476 705 490 702 504 697 _c
}_e{518 691 529 683 538 673 _c
547 662 552 649 552 635 _c
552 617 546 602 535 590 _c
523 578 510 572 494 572 _c
483 572 474 575 466 582 _c
458 588 455 597 455 608 _c
455 622 460 635 470 646 _c
480 657 492 663 507 665 _c
494 674 479 679 461 679 _c
451 679 441 674 432 665 _c
423 655 417 645 415 635 _c
411 617 401 571 387 497 _c
375 431 _l
478 431 _l
484 431 488 426 488 418 _c
}_e{487 416 486 413 485 409 _c
484 405 483 401 481 399 _c
479 397 477 396 475 396 _c
368 396 _l
322 152 _l
316 116 309 80 301 44 _c
293 8 283 -29 269 -68 _c
255 -106 238 -139 216 -165 _c
194 -191 169 -204 140 -204 _c
117 -204 97 -197 79 -185 _c
61 -172 53 -155 53 -134 _c
53 -116 58 -101 69 -89 _c
80 -77 94 -71 111 -71 _c
121 -71 130 -74 138 -81 _c
146 -87 150 -96 150 -107 _c
}_e{150 -121 144 -134 134 -146 _c
123 -158 111 -164 97 -164 _c
_cl}_e}_d
/y{{490 0 27 -204 492 442 _sc
84 -142 _m
98 -166 122 -178 157 -178 _c
189 -178 216 -167 239 -145 _c
262 -123 281 -96 295 -65 _c
309 -33 320 -1 328 31 _c
298 3 266 -10 232 -10 _c
205 -10 182 -5 164 3 _c
146 11 131 25 121 43 _c
111 61 106 83 106 109 _c
106 131 109 153 115 176 _c
121 198 129 224 139 252 _c
149 280 159 305 167 326 _c
175 350 180 370 180 386 _c
}_e{180 406 172 416 158 416 _c
132 416 110 402 93 375 _c
75 347 63 317 55 284 _c
53 280 51 278 47 278 _c
35 278 _l
29 278 27 281 27 287 _c
27 290 _l
37 330 54 365 76 396 _c
98 426 126 442 160 442 _c
184 442 204 434 220 418 _c
236 402 245 383 245 359 _c
245 346 242 333 237 320 _c
233 312 226 294 216 267 _c
206 239 198 217 193 199 _c
187 181 183 163 179 146 _c
}_e{175 128 174 111 174 94 _c
174 72 178 53 188 38 _c
197 22 212 15 233 15 _c
274 15 311 40 344 91 _c
420 399 _l
422 407 427 415 435 421 _c
443 427 452 431 462 431 _c
470 431 477 428 483 423 _c
489 418 492 411 492 403 _c
492 399 491 396 491 395 _c
392 -2 _l
383 -36 367 -68 344 -100 _c
320 -131 292 -156 259 -175 _c
225 -194 191 -204 156 -204 _c
138 -204 121 -200 104 -194 _c
}_e{87 -187 73 -177 63 -164 _c
53 -150 48 -135 48 -117 _c
48 -99 53 -83 64 -70 _c
74 -56 89 -50 107 -50 _c
117 -50 126 -53 134 -60 _c
141 -66 145 -75 145 -86 _c
145 -101 139 -114 128 -126 _c
116 -137 103 -143 88 -143 _c
87 -143 86 -142 86 -142 _c
85 -142 84 -142 84 -142 _c
_cl}_e}_d
/a{{528 0 38 -10 501 442 _sc
174 -10 _m
132 -10 98 5 74 37 _c
50 68 38 105 38 149 _c
38 191 49 236 71 282 _c
93 328 122 366 160 396 _c
198 426 238 442 282 442 _c
302 442 319 436 335 426 _c
351 415 363 400 372 382 _c
379 408 394 422 416 422 _c
424 422 431 419 437 414 _c
443 409 446 402 446 394 _c
446 392 445 390 445 389 _c
445 388 445 387 445 386 _c
375 107 _l
}_e{370 87 368 70 368 58 _c
368 29 377 15 397 15 _c
417 15 433 28 444 55 _c
455 81 464 112 472 147 _c
473 151 476 153 480 153 _c
492 153 _l
494 153 496 151 498 149 _c
500 147 501 145 501 143 _c
489 96 476 59 462 31 _c
448 3 426 -10 395 -10 _c
372 -10 352 -3 335 9 _c
318 21 307 39 303 61 _c
260 13 217 -10 174 -10 _c
175 15 _m
199 15 222 24 245 42 _c
}_e{267 60 287 81 303 106 _c
303 106 304 107 304 109 _c
358 326 _l
359 329 _l
355 353 346 373 333 390 _c
319 407 302 416 280 416 _c
257 416 236 406 217 388 _c
197 370 181 348 168 323 _c
154 296 142 259 130 213 _c
118 167 113 131 113 105 _c
113 81 118 60 128 42 _c
138 24 153 15 175 15 _c
_cl}_e}_d
/V{{583 0 55 -21 769 683 _sc
220 -10 _m
140 626 _l
135 640 110 648 65 648 _c
58 648 55 652 55 661 _c
56 668 58 673 60 677 _c
62 681 66 683 72 683 _c
316 683 _l
319 683 321 681 323 679 _c
325 676 326 673 326 670 _c
323 655 319 648 313 648 _c
261 648 233 639 230 621 _c
296 98 _l
604 590 _l
610 600 613 609 613 616 _c
613 628 607 636 597 641 _c
586 645 574 648 560 648 _c
}_e{553 648 550 652 550 661 _c
551 666 552 670 553 673 _c
554 676 556 678 558 680 _c
560 682 563 683 567 683 _c
760 683 _l
766 683 769 678 769 670 _c
766 655 762 648 756 648 _c
706 648 666 626 638 582 _c
636 580 635 580 635 580 _c
266 -10 _l
261 -17 255 -21 247 -21 _c
233 -21 _l
225 -21 221 -17 220 -10 _c
_cl}_e}_d
end readonly def

/BuildGlyph
 {exch begin
 CharStrings exch
 2 copy known not{pop /.notdef}if
 true 3 1 roll get exec
 end}_d

/BuildChar {
 1 index /Encoding get exch get
 1 index /BuildGlyph get exec
}_d

FontName currentdict end definefont pop
end
%%EndProlog
mpldict begin
-19.465 185.816 translate
650.931 420.368 0 0 clipbox
100000 setmiterlimit
gsave
0 0 m
650.930875 0 l
650.930875 420.3675 l
0 420.3675 l
cl
1.000 setgray
fill
grestore
gsave
47.996875 22.825 m
447.690875 22.825 l
447.690875 407.355 l
47.996875 407.355 l
cl
1.000 setgray
fill
grestore
2.000 setlinewidth
1 setlinejoin
2 setlinecap
[] 0 setdash
1.000 0.000 0.000 setrgbcolor
gsave
399.7 384.5 48 22.83 clipbox
47.996875 215.09 m
51.873907 223.367684 l
55.671 230.959918 l
59.428123 237.981689 l
63.105308 244.391848 l
66.742524 250.292369 l
70.33977 255.707179 l
73.857077 260.605963 l
77.334415 265.073093 l
80.771783 269.129754 l
84.169182 272.796413 l
87.526612 276.092832 l
90.844072 279.038086 l
94.121563 281.650579 l
97.359084 283.94806 l
100.556636 285.947637 l
103.754188 287.685939 l
106.911771 289.152529 l
110.069353 290.377054 l
113.226936 291.365833 l
116.424488 292.133355 l
119.62204 292.672169 l
122.859561 292.991418 l
126.137052 293.089607 l
129.454512 292.96565 l
132.851911 292.61345 l
136.28928 292.033109 l
139.806587 291.214517 l
143.443802 290.138145 l
147.200926 288.791017 l
151.077958 287.161404 l
155.074898 285.238983 l
159.231715 282.992246 l
163.58838 280.382261 l
168.144891 277.39084 l
172.941219 273.973475 l
178.017333 270.081006 l
183.453172 265.627529 l
189.288704 260.554316 l
195.683808 254.693301 l
202.838331 247.825694 l
211.191935 239.486952 l
222.22349 228.136447 l
246.924579 202.625582 l
255.398092 194.259579 l
262.552614 187.499946 l
268.947718 181.757345 l
274.783251 176.810223 l
280.219089 172.489686 l
285.295203 168.734844 l
290.091531 165.459488 l
294.648042 162.613747 l
299.004707 160.152866 l
303.161525 158.057337 l
307.158465 156.288545 l
310.995527 154.829593 l
314.712681 153.650427 l
318.309927 152.738562 l
321.827234 152.074071 l
325.264603 151.650084 l
328.622032 151.458925 l
331.899523 151.492184 l
335.137045 151.745264 l
338.334597 152.216746 l
341.492179 152.904812 l
344.649762 153.820305 l
347.807344 154.969543 l
353.802754 157.499586 l
361.556818 160.916212 l
369.350851 164.59352 l
377.184853 168.535261 l
385.098795 172.767205 l
393.052705 177.273682 l
401.046585 182.058517 l
409.120404 187.151412 l
417.234192 192.53297 l
425.427919 198.235566 l
433.661616 204.237285 l
441.975251 210.573211 l
447.690875 215.09 l
447.690875 215.09 l
stroke
grestore
0 setlinecap
[6 6] 0 setdash
gsave
399.7 384.5 48 22.83 clipbox
47.996875 215.09 m
51.873907 223.367684 l
55.671 230.959918 l
59.428123 237.981689 l
63.105308 244.391848 l
66.742524 250.292369 l
70.33977 255.707179 l
73.857077 260.605963 l
77.334415 265.073093 l
80.771783 269.129754 l
84.169182 272.796413 l
87.526612 276.092832 l
90.844072 279.038086 l
94.121563 281.650579 l
97.359084 283.94806 l
100.556636 285.947637 l
103.754188 287.685939 l
106.911771 289.152529 l
110.069353 290.377054 l
113.226936 291.365833 l
116.424488 292.133355 l
119.62204 292.672169 l
122.859561 292.991418 l
126.137052 293.089607 l
129.454512 292.96565 l
132.851911 292.61345 l
136.28928 292.033109 l
139.806587 291.214517 l
143.443802 290.138145 l
147.760497 288.608523 l
350.405355 215.09 l
447.690875 215.09 l
447.690875 215.09 l
stroke
grestore
[3 5 1 5] 0 setdash
gsave
399.7 384.5 48 22.83 clipbox
47.996875 215.09 m
52.913111 229.085808 l
57.709439 242.075358 l
62.385859 254.105905 l
66.942371 265.223651 l
71.378974 275.473743 l
75.735639 284.985036 l
79.972395 293.706019 l
84.089243 301.679059 l
88.086183 308.945483 l
92.003184 315.611309 l
95.800277 321.641118 l
99.517432 327.130321 l
103.114678 332.051078 l
106.631985 336.488591 l
110.029384 340.422206 l
113.346844 343.92732 l
116.584365 347.026382 l
119.701979 349.708943 l
122.739653 352.036548 l
125.737358 354.055192 l
128.655124 355.753072 l
131.492952 357.150463 l
134.29081 358.281634 l
137.008729 359.144755 l
139.686679 359.766645 l
142.364628 360.160328 l
145.002609 360.323624 l
147.640589 360.262655 l
150.2386 359.981946 l
152.876581 359.471288 l
155.514561 358.731608 l
158.152541 357.761139 l
160.830491 356.537982 l
163.54841 355.04929 l
166.306299 353.281734 l
169.104157 351.22147 l
171.941984 348.854098 l
174.859751 346.125196 l
177.817486 343.050125 l
180.815191 339.612167 l
183.892835 335.741284 l
187.050418 331.405095 l
190.24797 326.631354 l
193.52546 321.331508 l
196.842921 315.539583 l
200.24032 309.153009 l
203.677688 302.211923 l
207.155026 294.687306 l
210.712302 286.452232 l
214.309548 277.555512 l
217.946764 267.959285 l
221.623949 257.622038 l
225.341103 246.497998 l
227.859175 238.562885 l
227.859175 238.562885 l
stroke
grestore
2 setlinecap
[] 0 setdash
0.000 0.000 1.000 setrgbcolor
gsave
399.7 384.5 48 22.83 clipbox
47.996875 215.09 m
56.430418 208.471345 l
64.784023 202.196709 l
73.057689 196.258057 l
81.291385 190.620719 l
89.445143 185.30613 l
97.558931 180.282344 l
105.59278 175.568266 l
113.58666 171.134635 l
121.500602 166.997862 l
129.374573 163.131332 l
137.208576 159.53126 l
145.002609 156.193876 l
151.077958 153.807269 l
154.23554 152.894695 l
157.433092 152.202223 l
160.630644 151.736326 l
163.868166 151.488732 l
167.145656 151.460857 l
170.463117 151.653702 l
173.860516 152.074071 l
177.337853 152.729733 l
180.89513 153.627678 l
184.572315 154.7879 l
188.369408 156.222998 l
192.286409 157.944272 l
196.363288 159.982726 l
200.600044 162.35358 l
205.036648 165.095659 l
209.673098 168.226091 l
214.549365 171.788826 l
219.745387 175.864492 l
225.301133 180.509878 l
231.296543 185.817469 l
237.891494 191.958607 l
245.365772 199.231438 l
254.318918 208.267596 l
267.50882 221.934415 l
284.695662 239.689636 l
293.608838 248.56814 l
301.003177 255.627831 l
307.558159 261.584262 l
313.513599 266.700296 l
319.029376 271.149442 l
324.185429 275.026321 l
329.021726 278.389937 l
333.618207 281.320815 l
338.014841 283.863442 l
342.211628 286.036678 l
346.248538 287.879153 l
350.12557 289.407324 l
353.882693 290.65143 l
357.519909 291.623645 l
361.037216 292.337373 l
364.474584 292.811302 l
367.832014 293.052979 l
371.149474 293.069549 l
374.386995 292.865703 l
377.584547 292.444333 l
380.782099 291.797701 l
383.939682 290.931682 l
387.097265 289.833277 l
390.254847 288.496167 l
393.41243 286.914032 l
396.570012 285.080553 l
399.727595 282.989409 l
402.925147 280.602751 l
406.162668 277.90374 l
409.40019 274.91367 l
412.677681 271.583247 l
415.995141 267.894106 l
419.35257 263.827216 l
422.749969 259.36287 l
426.227307 254.421701 l
429.744614 249.032572 l
433.301891 243.173187 l
436.939106 236.747457 l
440.616291 229.794557 l
444.333445 222.289374 l
447.690875 215.09 l
447.690875 215.09 l
stroke
grestore
0 setlinecap
[6 6] 0 setdash
gsave
399.7 384.5 48 22.83 clipbox
47.996875 215.09 m
145.881936 215.189949 l
353.802754 290.62746 l
357.43997 291.604802 l
360.997246 292.330547 l
364.434615 292.807093 l
367.792044 293.051418 l
371.109505 293.070693 l
374.347026 292.869572 l
377.544578 292.450977 l
380.74213 291.807201 l
383.899713 290.944083 l
387.057295 289.84866 l
390.214878 288.514611 l
393.37246 286.935617 l
396.530043 285.105358 l
399.687626 283.017516 l
402.885178 280.634282 l
406.122699 277.938822 l
409.36022 274.952386 l
412.637711 271.625729 l
415.955171 267.940487 l
419.312601 263.877633 l
422.71 259.417463 l
426.187338 254.480664 l
429.704645 249.096054 l
433.261922 243.241341 l
436.899137 236.820492 l
440.576322 229.872635 l
444.293476 222.37266 l
447.690875 215.09 l
447.690875 215.09 l
stroke
grestore
[3 5 1 5] 0 setdash
gsave
399.7 384.5 48 22.83 clipbox
227.859175 57.886763 m
231.456421 79.481063 l
235.093636 99.979028 l
238.810791 119.659393 l
242.567914 138.354983 l
246.365007 156.121209 l
250.1621 172.834488 l
253.999163 188.725561 l
257.836225 203.675581 l
261.673287 217.738828 l
265.51035 230.962632 l
269.307443 243.263004 l
273.104536 254.817307 l
276.861659 265.546339 l
280.578814 275.498934 l
284.255998 284.71923 l
287.893214 293.247358 l
291.49046 301.120007 l
295.007767 308.292326 l
298.485105 314.885329 l
301.882504 320.859757 l
305.239933 326.320057 l
308.517424 331.23307 l
311.754946 335.688716 l
314.912528 339.660153 l
317.990172 343.180886 l
321.027846 346.321716 l
323.985582 349.06505 l
326.903348 351.470631 l
329.741176 353.527051 l
332.539034 355.283925 l
335.296922 356.755335 l
338.014841 357.954837 l
340.692791 358.895498 l
343.330772 359.58993 l
345.968752 360.055678 l
348.606732 360.294402 l
351.244713 360.307677 l
353.882693 360.096996 l
356.520674 359.663781 l
359.198623 358.99777 l
361.916543 358.090132 l
364.674431 356.931931 l
367.472289 355.514134 l
370.350086 353.802067 l
373.267852 351.804881 l
376.265557 349.480331 l
379.343201 346.807751 l
382.500784 343.766036 l
385.738305 340.333644 l
389.055765 336.488591 l
392.453164 332.208453 l
395.970471 327.413812 l
399.567717 322.129422 l
403.284872 316.266082 l
407.081965 309.855691 l
410.998966 302.798864 l
414.995906 295.135036 l
419.112754 286.754237 l
423.34951 277.61518 l
427.666206 267.769216 l
432.102809 257.08954 l
436.659321 245.532083 l
441.295771 233.161039 l
446.05213 219.831799 l
447.690875 215.09 l
447.690875 215.09 l
stroke
grestore
[1 3] 0 setdash
0.000 setgray
gsave
399.7 384.5 48 22.83 clipbox
145.60688 22.825 m
145.60688 407.355 l
stroke
grestore
gsave
399.7 384.5 48 22.83 clipbox
350.08087 22.825 m
350.08087 407.355 l
stroke
grestore
1.500 setlinewidth
[6 6] 0 setdash
gsave
399.7 384.5 48 22.83 clipbox
227.859175 22.825 m
227.859175 407.355 l
stroke
grestore
gsave
399.7 384.5 48 22.83 clipbox
267.828575 22.825 m
267.828575 407.355 l
stroke
grestore
1.000 setlinewidth
0 setlinejoin
2 setlinecap
[] 0 setdash
gsave
47.996875 407.355 m
447.690875 407.355 l
stroke
grestore
gsave
447.690875 22.825 m
447.690875 407.355 l
stroke
grestore
gsave
47.996875 22.825 m
447.690875 22.825 l
stroke
grestore
gsave
47.996875 22.825 m
47.996875 407.355 l
stroke
grestore
0.500 setlinewidth
1 setlinejoin
0 setlinecap
gsave
/o {
gsave
newpath
translate
0.5 setlinewidth
1 setlinejoin
0 setlinecap
0 0 m
0 4 l

gsave
0.000 setgray
fill
grestore
stroke
grestore
} bind def
47.9969 22.825 o
grestore
gsave
/o {
gsave
newpath
translate
0.5 setlinewidth
1 setlinejoin
0 setlinecap
0 0 m
0 -4 l

gsave
0.000 setgray
fill
grestore
stroke
grestore
} bind def
47.9969 407.355 o
grestore
/BitstreamVeraSans-Roman findfont
12.000 scalefont
setfont
gsave
38.450000 9.700000 translate
0.000000 rotate
0.000000 0.000000 m /zero glyphshow
7.634766 0.000000 m /period glyphshow
11.449219 0.000000 m /zero glyphshow
grestore
gsave
/o {
gsave
newpath
translate
0.5 setlinewidth
1 setlinejoin
0 setlinecap
0 0 m
0 4 l

gsave
0.000 setgray
fill
grestore
stroke
grestore
} bind def
127.936 22.825 o
grestore
gsave
/o {
gsave
newpath
translate
0.5 setlinewidth
1 setlinejoin
0 setlinecap
0 0 m
0 -4 l

gsave
0.000 setgray
fill
grestore
stroke
grestore
} bind def
127.936 407.355 o
grestore
gsave
118.388800 9.700000 translate
0.000000 rotate
0.000000 0.000000 m /zero glyphshow
7.634766 0.000000 m /period glyphshow
11.449219 0.000000 m /two glyphshow
grestore
gsave
/o {
gsave
newpath
translate
0.5 setlinewidth
1 setlinejoin
0 setlinecap
0 0 m
0 4 l

gsave
0.000 setgray
fill
grestore
stroke
grestore
} bind def
207.874 22.825 o
grestore
gsave
/o {
gsave
newpath
translate
0.5 setlinewidth
1 setlinejoin
0 setlinecap
0 0 m
0 -4 l

gsave
0.000 setgray
fill
grestore
stroke
grestore
} bind def
207.874 407.355 o
grestore
gsave
198.327600 9.700000 translate
0.000000 rotate
0.000000 0.000000 m /zero glyphshow
7.634766 0.000000 m /period glyphshow
11.449219 0.000000 m /four glyphshow
grestore
gsave
/o {
gsave
newpath
translate
0.5 setlinewidth
1 setlinejoin
0 setlinecap
0 0 m
0 4 l

gsave
0.000 setgray
fill
grestore
stroke
grestore
} bind def
287.813 22.825 o
grestore
gsave
/o {
gsave
newpath
translate
0.5 setlinewidth
1 setlinejoin
0 setlinecap
0 0 m
0 -4 l

gsave
0.000 setgray
fill
grestore
stroke
grestore
} bind def
287.813 407.355 o
grestore
gsave
278.266400 9.700000 translate
0.000000 rotate
0.000000 0.000000 m /zero glyphshow
7.634766 0.000000 m /period glyphshow
11.449219 0.000000 m /six glyphshow
grestore
gsave
/o {
gsave
newpath
translate
0.5 setlinewidth
1 setlinejoin
0 setlinecap
0 0 m
0 4 l

gsave
0.000 setgray
fill
grestore
stroke
grestore
} bind def
367.752 22.825 o
grestore
gsave
/o {
gsave
newpath
translate
0.5 setlinewidth
1 setlinejoin
0 setlinecap
0 0 m
0 -4 l

gsave
0.000 setgray
fill
grestore
stroke
grestore
} bind def
367.752 407.355 o
grestore
gsave
358.205200 9.700000 translate
0.000000 rotate
0.000000 0.000000 m /zero glyphshow
7.634766 0.000000 m /period glyphshow
11.449219 0.000000 m /eight glyphshow
grestore
gsave
/o {
gsave
newpath
translate
0.5 setlinewidth
1 setlinejoin
0 setlinecap
0 0 m
0 4 l

gsave
0.000 setgray
fill
grestore
stroke
grestore
} bind def
447.691 22.825 o
grestore
gsave
/o {
gsave
newpath
translate
0.5 setlinewidth
1 setlinejoin
0 setlinecap
0 0 m
0 -4 l

gsave
0.000 setgray
fill
grestore
stroke
grestore
} bind def
447.691 407.355 o
grestore
gsave
438.144000 9.700000 translate
0.000000 rotate
0.000000 0.000000 m /one glyphshow
7.634766 0.000000 m /period glyphshow
11.449219 0.000000 m /zero glyphshow
grestore
gsave
/o {
gsave
newpath
translate
0.5 setlinewidth
1 setlinejoin
0 setlinecap
0 0 m
4 0 l

gsave
0.000 setgray
fill
grestore
stroke
grestore
} bind def
47.9969 22.825 o
grestore
gsave
/o {
gsave
newpath
translate
0.5 setlinewidth
1 setlinejoin
0 setlinecap
0 0 m
-4 0 l

gsave
0.000 setgray
fill
grestore
stroke
grestore
} bind def
447.691 22.825 o
grestore
gsave
7.200000 19.512500 translate
0.000000 rotate
0.000000 0.000000 m /minus glyphshow
10.054688 0.000000 m /zero glyphshow
17.689453 0.000000 m /period glyphshow
21.503906 0.000000 m /one glyphshow
29.138672 0.000000 m /five glyphshow
grestore
gsave
/o {
gsave
newpath
translate
0.5 setlinewidth
1 setlinejoin
0 setlinecap
0 0 m
4 0 l

gsave
0.000 setgray
fill
grestore
stroke
grestore
} bind def
47.9969 86.9133 o
grestore
gsave
/o {
gsave
newpath
translate
0.5 setlinewidth
1 setlinejoin
0 setlinecap
0 0 m
-4 0 l

gsave
0.000 setgray
fill
grestore
stroke
grestore
} bind def
447.691 86.9133 o
grestore
gsave
7.200000 83.600833 translate
0.000000 rotate
0.000000 0.000000 m /minus glyphshow
10.054688 0.000000 m /zero glyphshow
17.689453 0.000000 m /period glyphshow
21.503906 0.000000 m /one glyphshow
29.138672 0.000000 m /zero glyphshow
grestore
gsave
/o {
gsave
newpath
translate
0.5 setlinewidth
1 setlinejoin
0 setlinecap
0 0 m
4 0 l

gsave
0.000 setgray
fill
grestore
stroke
grestore
} bind def
47.9969 151.002 o
grestore
gsave
/o {
gsave
newpath
translate
0.5 setlinewidth
1 setlinejoin
0 setlinecap
0 0 m
-4 0 l

gsave
0.000 setgray
fill
grestore
stroke
grestore
} bind def
447.691 151.002 o
grestore
gsave
7.200000 147.689167 translate
0.000000 rotate
0.000000 0.000000 m /minus glyphshow
10.054688 0.000000 m /zero glyphshow
17.689453 0.000000 m /period glyphshow
21.503906 0.000000 m /zero glyphshow
29.138672 0.000000 m /five glyphshow
grestore
gsave
/o {
gsave
newpath
translate
0.5 setlinewidth
1 setlinejoin
0 setlinecap
0 0 m
4 0 l

gsave
0.000 setgray
fill
grestore
stroke
grestore
} bind def
47.9969 215.09 o
grestore
gsave
/o {
gsave
newpath
translate
0.5 setlinewidth
1 setlinejoin
0 setlinecap
0 0 m
-4 0 l

gsave
0.000 setgray
fill
grestore
stroke
grestore
} bind def
447.691 215.09 o
grestore
gsave
17.262500 211.777500 translate
0.000000 rotate
0.000000 0.000000 m /zero glyphshow
7.634766 0.000000 m /period glyphshow
11.449219 0.000000 m /zero glyphshow
19.083984 0.000000 m /zero glyphshow
grestore
gsave
/o {
gsave
newpath
translate
0.5 setlinewidth
1 setlinejoin
0 setlinecap
0 0 m
4 0 l

gsave
0.000 setgray
fill
grestore
stroke
grestore
} bind def
47.9969 279.178 o
grestore
gsave
/o {
gsave
newpath
translate
0.5 setlinewidth
1 setlinejoin
0 setlinecap
0 0 m
-4 0 l

gsave
0.000 setgray
fill
grestore
stroke
grestore
} bind def
447.691 279.178 o
grestore
gsave
17.262500 275.865833 translate
0.000000 rotate
0.000000 0.000000 m /zero glyphshow
7.634766 0.000000 m /period glyphshow
11.449219 0.000000 m /zero glyphshow
19.083984 0.000000 m /five glyphshow
grestore
gsave
/o {
gsave
newpath
translate
0.5 setlinewidth
1 setlinejoin
0 setlinecap
0 0 m
4 0 l

gsave
0.000 setgray
fill
grestore
stroke
grestore
} bind def
47.9969 343.267 o
grestore
gsave
/o {
gsave
newpath
translate
0.5 setlinewidth
1 setlinejoin
0 setlinecap
0 0 m
-4 0 l

gsave
0.000 setgray
fill
grestore
stroke
grestore
} bind def
447.691 343.267 o
grestore
gsave
17.262500 339.954167 translate
0.000000 rotate
0.000000 0.000000 m /zero glyphshow
7.634766 0.000000 m /period glyphshow
11.449219 0.000000 m /one glyphshow
19.083984 0.000000 m /zero glyphshow
grestore
gsave
/o {
gsave
newpath
translate
0.5 setlinewidth
1 setlinejoin
0 setlinecap
0 0 m
4 0 l

gsave
0.000 setgray
fill
grestore
stroke
grestore
} bind def
47.9969 407.355 o
grestore
gsave
/o {
gsave
newpath
translate
0.5 setlinewidth
1 setlinejoin
0 setlinecap
0 0 m
-4 0 l

gsave
0.000 setgray
fill
grestore
stroke
grestore
} bind def
447.691 407.355 o
grestore
gsave
17.262500 404.042500 translate
0.000000 rotate
0.000000 0.000000 m /zero glyphshow
7.634766 0.000000 m /period glyphshow
11.449219 0.000000 m /one glyphshow
19.083984 0.000000 m /five glyphshow
grestore
gsave
131.106880 32.825000 translate
0.000000 rotate
/Cmmi10 findfont
14.4 scalefont
setfont
0.000000 0.640625 moveto
/x glyphshow

/Cmsy10 findfont
10.08 scalefont
setfont
8.214172 -1.808275 moveto
/asteriskmath glyphshow


grestore
gsave
336.080870 32.825000 translate
0.000000 rotate
/Cmmi10 findfont
14.4 scalefont
setfont
0.000000 0.640625 moveto
/y glyphshow

/Cmsy10 findfont
10.08 scalefont
setfont
7.054779 -1.808275 moveto
/asteriskmath glyphshow


grestore
gsave
216.859175 32.825000 translate
0.000000 rotate
/Cmmi10 findfont
14.4 scalefont
setfont
0.000000 0.640625 moveto
/a glyphshow


grestore
gsave
257.328575 32.825000 translate
0.000000 rotate
/Cmmi10 findfont
14.4 scalefont
setfont
0.000000 0.015625 moveto
/b glyphshow


grestore
1.000 setlinewidth
0 setlinejoin
gsave
454.890875 141.33 m
643.730875 141.33 l
643.730875 288.85 l
454.890875 288.85 l
cl
gsave
1.000 setgray
fill
grestore
stroke
grestore
2.000 setlinewidth
1 setlinejoin
2 setlinecap
1.000 0.000 0.000 setrgbcolor
gsave
464.970875 277.13 m
485.130875 277.13 l
stroke
grestore
0.000 setgray
gsave
500.970875 272.090000 translate
0.000000 rotate
/Cmmi10 findfont
14.4 scalefont
setfont
0.000000 0.203125 moveto
/x glyphshow

/STIXGeneral-Regular findfont
14.4 scalefont
setfont
10.740964 0.203125 moveto
/uni21A6 glyphshow

/Cmmi10 findfont
14.4 scalefont
setfont
26.579004 0.203125 moveto
/f glyphshow

/Cmr10 findfont
10.08 scalefont
setfont
33.612695 -2.245775 moveto
/one glyphshow

/Cmr10 findfont
14.4 scalefont
setfont
39.567752 0.203125 moveto
/parenleft glyphshow

/Cmmi10 findfont
14.4 scalefont
setfont
45.153948 0.203125 moveto
/x glyphshow

/Cmr10 findfont
14.4 scalefont
setfont
53.368121 0.203125 moveto
/parenright glyphshow

/Cmsy10 findfont
14.4 scalefont
setfont
61.481109 0.203125 moveto
/minus glyphshow

/Cmmi10 findfont
14.4 scalefont
setfont
75.187329 0.203125 moveto
/g glyphshow

/Cmr10 findfont
10.08 scalefont
setfont
82.052380 -2.245775 moveto
/one glyphshow

/Cmmi10 findfont
10.08 scalefont
setfont
87.089099 -2.245775 moveto
/comma glyphshow

/Cmr10 findfont
10.08 scalefont
setfont
91.646733 -2.245775 moveto
/bracketleft glyphshow

/Cmmi10 findfont
10.08 scalefont
setfont
94.435614 -2.245775 moveto
/y glyphshow

/Cmsy10 findfont
7.056 scalefont
setfont
99.373960 -3.960005 moveto
/asteriskmath glyphshow

/Cmmi10 findfont
10.08 scalefont
setfont
103.542499 -2.245775 moveto
/comma glyphshow

/Cmr10 findfont
10.08 scalefont
setfont
108.100134 -2.245775 moveto
/one glyphshow

113.136853 -2.245775 moveto
/bracketright glyphshow

/Cmr10 findfont
14.4 scalefont
setfont
116.844071 0.203125 moveto
/parenleft glyphshow

/Cmmi10 findfont
14.4 scalefont
setfont
122.430268 0.203125 moveto
/x glyphshow

/Cmr10 findfont
14.4 scalefont
setfont
130.644440 0.203125 moveto
/parenright glyphshow


grestore
0 setlinecap
[6 6] 0 setdash
1.000 0.000 0.000 setrgbcolor
gsave
464.970875 249.93 m
485.130875 249.93 l
stroke
grestore
0.000 setgray
gsave
500.970875 244.890000 translate
0.000000 rotate
/Cmmi10 findfont
14.4 scalefont
setfont
0.000000 0.095225 moveto
/x glyphshow

/STIXGeneral-Regular findfont
14.4 scalefont
setfont
10.740964 0.095225 moveto
/uni21A6 glyphshow

/Cmr10 findfont
14.4 scalefont
setfont
28.473341 3.488975 moveto
/tilde glyphshow

/Cmmi10 findfont
14.4 scalefont
setfont
26.579004 0.095225 moveto
/V glyphshow

/Cmr10 findfont
10.08 scalefont
setfont
35.611687 7.442188 moveto
/bracketleft glyphshow

/Cmmi10 findfont
10.08 scalefont
setfont
38.400568 7.442188 moveto
/y glyphshow

/Cmsy10 findfont
7.056 scalefont
setfont
43.338913 5.727958 moveto
/asteriskmath glyphshow

/Cmmi10 findfont
10.08 scalefont
setfont
47.507453 7.442188 moveto
/comma glyphshow

/Cmr10 findfont
10.08 scalefont
setfont
52.065087 7.442188 moveto
/one glyphshow

57.101806 7.442188 moveto
/bracketright glyphshow

35.611687 -3.578125 moveto
/one glyphshow

/Cmr10 findfont
14.4 scalefont
setfont
60.809025 0.095225 moveto
/parenleft glyphshow

/Cmmi10 findfont
14.4 scalefont
setfont
66.395222 0.095225 moveto
/x glyphshow

/Cmr10 findfont
14.4 scalefont
setfont
74.609394 0.095225 moveto
/parenright glyphshow


grestore
[3 5 1 5] 0 setdash
1.000 0.000 0.000 setrgbcolor
gsave
464.970875 227.73 m
485.130875 227.73 l
stroke
grestore
0.000 setgray
gsave
500.970875 222.690000 translate
0.000000 rotate
/Cmmi10 findfont
14.4 scalefont
setfont
0.000000 0.203125 moveto
/x glyphshow

/STIXGeneral-Regular findfont
14.4 scalefont
setfont
10.740964 0.203125 moveto
/uni21A6 glyphshow

/Cmmi10 findfont
14.4 scalefont
setfont
26.579004 0.203125 moveto
/U glyphshow

/Cmr10 findfont
10.08 scalefont
setfont
36.395258 -2.245775 moveto
/one glyphshow

/Cmr10 findfont
14.4 scalefont
setfont
42.350314 0.203125 moveto
/parenleft glyphshow

/Cmmi10 findfont
14.4 scalefont
setfont
47.936511 0.203125 moveto
/x glyphshow

56.150683 0.203125 moveto
/comma glyphshow

62.661590 0.203125 moveto
/y glyphshow

/Cmsy10 findfont
10.08 scalefont
setfont
69.716369 -2.245775 moveto
/asteriskmath glyphshow

/Cmr10 findfont
14.4 scalefont
setfont
75.671425 0.203125 moveto
/parenright glyphshow


grestore
2 setlinecap
[] 0 setdash
0.000 0.000 1.000 setrgbcolor
gsave
464.970875 205.53 m
485.130875 205.53 l
stroke
grestore
0.000 setgray
gsave
500.970875 200.490000 translate
0.000000 rotate
/Cmmi10 findfont
14.4 scalefont
setfont
0.000000 0.203125 moveto
/y glyphshow

/STIXGeneral-Regular findfont
14.4 scalefont
setfont
9.581570 0.203125 moveto
/uni21A6 glyphshow

/Cmmi10 findfont
14.4 scalefont
setfont
25.419611 0.203125 moveto
/f glyphshow

/Cmr10 findfont
10.08 scalefont
setfont
32.453302 -2.245775 moveto
/two glyphshow

/Cmr10 findfont
14.4 scalefont
setfont
38.408358 0.203125 moveto
/parenleft glyphshow

/Cmmi10 findfont
14.4 scalefont
setfont
43.994555 0.203125 moveto
/y glyphshow

/Cmr10 findfont
14.4 scalefont
setfont
51.049334 0.203125 moveto
/parenright glyphshow

/Cmsy10 findfont
14.4 scalefont
setfont
59.162322 0.203125 moveto
/minus glyphshow

/Cmmi10 findfont
14.4 scalefont
setfont
72.868542 0.203125 moveto
/g glyphshow

/Cmr10 findfont
10.08 scalefont
setfont
79.733593 -2.245775 moveto
/two glyphshow

/Cmmi10 findfont
10.08 scalefont
setfont
84.770312 -2.245775 moveto
/comma glyphshow

/Cmr10 findfont
10.08 scalefont
setfont
89.327947 -2.245775 moveto
/bracketleft glyphshow

92.116828 -2.245775 moveto
/zero glyphshow

/Cmmi10 findfont
10.08 scalefont
setfont
97.153547 -2.245775 moveto
/comma glyphshow

101.711181 -2.245775 moveto
/x glyphshow

/Cmsy10 findfont
7.056 scalefont
setfont
107.461102 -3.960005 moveto
/asteriskmath glyphshow

/Cmr10 findfont
10.08 scalefont
setfont
111.629641 -2.245775 moveto
/bracketright glyphshow

/Cmr10 findfont
14.4 scalefont
setfont
115.336860 0.203125 moveto
/parenleft glyphshow

/Cmmi10 findfont
14.4 scalefont
setfont
120.923057 0.203125 moveto
/y glyphshow

/Cmr10 findfont
14.4 scalefont
setfont
127.977836 0.203125 moveto
/parenright glyphshow


grestore
0 setlinecap
[6 6] 0 setdash
0.000 0.000 1.000 setrgbcolor
gsave
464.970875 178.33 m
485.130875 178.33 l
stroke
grestore
0.000 setgray
gsave
500.970875 173.290000 translate
0.000000 rotate
/Cmmi10 findfont
14.4 scalefont
setfont
0.000000 0.095225 moveto
/y glyphshow

/STIXGeneral-Regular findfont
14.4 scalefont
setfont
9.581570 0.095225 moveto
/uni21A6 glyphshow

/Cmr10 findfont
14.4 scalefont
setfont
27.313947 3.488975 moveto
/tilde glyphshow

/Cmmi10 findfont
14.4 scalefont
setfont
25.419611 0.095225 moveto
/V glyphshow

/Cmr10 findfont
10.08 scalefont
setfont
34.452294 7.442188 moveto
/bracketleft glyphshow

37.241175 7.442188 moveto
/zero glyphshow

/Cmmi10 findfont
10.08 scalefont
setfont
42.277893 7.442188 moveto
/comma glyphshow

46.835528 7.442188 moveto
/x glyphshow

/Cmsy10 findfont
7.056 scalefont
setfont
52.585449 5.727958 moveto
/asteriskmath glyphshow

/Cmr10 findfont
10.08 scalefont
setfont
56.753988 7.442188 moveto
/bracketright glyphshow

34.452294 -3.578125 moveto
/two glyphshow

/Cmr10 findfont
14.4 scalefont
setfont
60.461207 0.095225 moveto
/parenleft glyphshow

/Cmmi10 findfont
14.4 scalefont
setfont
66.047404 0.095225 moveto
/y glyphshow

/Cmr10 findfont
14.4 scalefont
setfont
73.102183 0.095225 moveto
/parenright glyphshow


grestore
[3 5 1 5] 0 setdash
0.000 0.000 1.000 setrgbcolor
gsave
464.970875 156.13 m
485.130875 156.13 l
stroke
grestore
0.000 setgray
gsave
500.970875 151.090000 translate
0.000000 rotate
/Cmmi10 findfont
14.4 scalefont
setfont
0.000000 0.203125 moveto
/y glyphshow

/STIXGeneral-Regular findfont
14.4 scalefont
setfont
9.581570 0.203125 moveto
/uni21A6 glyphshow

/Cmmi10 findfont
14.4 scalefont
setfont
25.419611 0.203125 moveto
/U glyphshow

/Cmr10 findfont
10.08 scalefont
setfont
35.235864 -2.245775 moveto
/two glyphshow

/Cmr10 findfont
14.4 scalefont
setfont
41.190921 0.203125 moveto
/parenleft glyphshow

/Cmmi10 findfont
14.4 scalefont
setfont
46.777117 0.203125 moveto
/x glyphshow

/Cmsy10 findfont
10.08 scalefont
setfont
54.991290 -2.245775 moveto
/asteriskmath glyphshow

/Cmmi10 findfont
14.4 scalefont
setfont
60.946346 0.203125 moveto
/comma glyphshow

67.457253 0.203125 moveto
/y glyphshow

/Cmr10 findfont
14.4 scalefont
setfont
74.512032 0.203125 moveto
/parenright glyphshow


grestore

end
showpage
